<?xml version="1.0" encoding="utf-8"?>
<!-- Generator: Adobe Illustrator 23.0.0, SVG Export Plug-In . SVG Version: 6.00 Build 0)  -->
<svg version="1.1" id="Ebene_1" xmlns="http://www.w3.org/2000/svg" xmlns:xlink="http://www.w3.org/1999/xlink" x="0px" y="0px"
	 viewBox="0 0 202 241" style="enable-background:new 0 0 202 241;" xml:space="preserve">
<style type="text/css">
                                    .stxrx0 {
                                        fill: url(#bgebn2_1_);
                                    }

                                    .stxrx1 {
                                        fill: url(#bgebn1_1_);
                                    }

                                    .stxrx2 {
                                        fill: url(#brgph1_1_);
                                    }

                                    .stxrx3 {
                                        fill: url(#brgph2_1_);
                                    }

                                    .stxrx4 {
                                        fill: url(#brgph3_1_);
                                    }

                                    .stxrx5 {
                                        fill: url(#lgr5_1_);
                                    }

                                    .stxrx6 {
                                        fill: none;
                                        stroke: url(#lgr4_1_);
                                        stroke-miterlimit: 10;
                                    }

                                    .stxrx7 {
                                        opacity: 0.8;
                                        fill: none;
                                        stroke: url(#lgr3_1_);
                                        stroke-miterlimit: 10;
                                    }

                                    .stxrx8 {
                                        fill: url(#lgr2_1_);
                                    }

                                    .stxrx9 {
                                        fill: url(#lgr1_1_);
                                    }

                                    .stxrx10 {
                                        fill: url(#SxVGID_1_);
                                    }

                                    .stxrx11 {
                                        fill: url(#SxVGID_2_);
                                    }

                                    .stxrx12 {
                                        fill: url(#SxVGID_3_);
                                    }

                                    .stxrx13 {
                                        fill: url(#SxVGID_4_);
                                    }

                                    .stxrx14 {
                                        fill: url(#tbarrr1_1_);
                                    }

                                    .stxrx15 {
                                        fill: url(#tbarrr2_1_);
                                    }

                                    .stxrx16 {
                                        fill: url(#tbarrr3_1_);
                                    }
</style>
    <g id="BG">
        <linearGradient id="bgebn2_1_" gradientUnits="userSpaceOnUse" x1="22.6936" y1="122.8165" x2="173.0628" y2="122.8165">
            <stop offset="0" style="stop-color:#D41131" />
            <stop offset="0.682" style="stop-color:#EB8273" />
            <stop offset="1" style="stop-color:#FFF9E3" />
        </linearGradient>
        <path id="bgebn2" class="stxrx0" d="M22.7,35.8l5.5,94.4c0,2.9,1.5,5.5,4,7l127.9,80.3c3.7,2.1,13-4.2,13-8.5l0-97.4
                                    c0-2.9-1.5-5.5-4-7L36.7,28.3C32.9,26.1,22.7,31.4,22.7,35.8z" />
        <linearGradient id="bgebn1_1_" gradientUnits="userSpaceOnUse" x1="22.6458" y1="124.3286" x2="167.5628" y2="124.3286">
            <stop offset="1.944385e-07" style="stop-color:#FE5D7B" />
            <stop offset="0.5073" style="stop-color:#EB8273" />
            <stop offset="0.9968" style="stop-color:#FBEBB2" />
        </linearGradient>
        <path id="bgebn1" class="stxrx1" d="M22.7,36.5l0,97c0,2.9,1.5,5.5,4,7l132.6,76.6c3.7,2.1,8.3-0.5,8.3-4.8l0-97.4c0-2.9-1.5-5.5-4-7
                                    L31.2,31.6C27.4,29.4,22.7,32.1,22.7,36.5z" />
    </g>
    <g id="Bar_Graph">
        <linearGradient id="brgph1_1_" gradientUnits="userSpaceOnUse" x1="36.4171" y1="63.7931" x2="40.7593" y2="63.7931">
            <stop offset="0" style="stop-color:#88004F" />
            <stop offset="0.9927" style="stop-color:#490038" />
        </linearGradient>
        <polygon id="brgph1" class="stxrx2" points="36.4,48.6 40.8,51 40.8,78.9 36.4,76.5 	">
            <rect>
                <animate id="Anmbrgph1" begin="0;Anmbrgph1.end" dur="4s" attributeName="visibility" from="hide" to="hide" />
            </rect>
            <animate attributeName="points" begin="Anmbrgph1.begin" dur="2.05s" from="36.4,48.6 40.8,51 40.8,78.9 36.4,76.5 " to="36.4,68.6 40.8,71 40.8,78.9 36.4,76.5" />

            <animate attributeName="points" dur="2.05s" begin="Anmbrgph1.begin+2s" from="36.4,68.6 40.8,71 40.8,78.9 36.4,76.5" to="36.4,48.6 40.8,51 40.8,78.9 36.4,76.5 " />

        </polygon>

        <linearGradient id="brgph2_1_" gradientUnits="userSpaceOnUse" x1="45.4838" y1="73.7582" x2="49.8261" y2="73.7582">
            <stop offset="0" style="stop-color:#D25ABA" />
            <stop offset="1" style="stop-color:#A02DAC" />
        </linearGradient>
        <polygon id="brgph2" class="stxrx3" points="45.5,63.3 49.8,65.7 49.8,84.2 45.5,81.8 	">
            <rect>
                <animate id="Anmbrgph2" begin="0;Anmbrgph2.end" dur="4s" attributeName="visibility" from="hide" to="hide" />
            </rect>
            <animate attributeName="points" begin="Anmbrgph2.begin" dur="2.05s" from="45.5,63.3 49.8,65.7 49.8,84.2 45.5,81.8 " to="45.5,80.3 49.8,82.7 49.8,84.2 45.5,81.8" />

            <animate attributeName="points" dur="2.05s" begin="Anmbrgph2.begin+2s" from="45.5,80.3 49.8,82.7 49.8,84.2 45.5,81.8" to="45.5,63.3 49.8,65.7 49.8,84.2 45.5,81.8" />

        </polygon>
        <linearGradient id="brgph3_1_" gradientUnits="userSpaceOnUse" x1="56.7011" y1="89.3942" x2="56.7011" y2="62.9005">
            <stop offset="0" style="stop-color:#FFD5D9" />
            <stop offset="1" style="stop-color:#FFBFF9" />
        </linearGradient>
        <polygon id="brgph3" class="stxrx4" points="54.5,62.9 58.9,65.3 58.9,89.4 54.5,87 	">
            <rect>
                <animate id="Anmbrgph3" begin="0;Anmbrgph3.end" dur="2s" attributeName="visibility" from="hide" to="hide" />
            </rect>
            <animate attributeName="points" begin="Anmbrgph3.begin" dur="1.05s" from="54.5,62.9 58.9,65.3 58.9,89.4 54.5,87 " to="54.5,79.9 58.9,82.3 58.9,89.4 54.5,87" />

            <animate attributeName="points" dur="1.05s" begin="Anmbrgph3.begin+1s" from="54.5,79.9 58.9,82.3 58.9,89.4 54.5,87" to="54.5,62.9 58.9,65.3 58.9,89.4 54.5,87" />

        </polygon>
    </g>
    <g id="Line_Graph">
        <linearGradient id="lgr5_1_" gradientUnits="userSpaceOnUse" x1="65.005" y1="129.0922" x2="65.8676" y2="129.0922">
            <stop offset="0" style="stop-color:#88004F" />
            <stop offset="0.9927" style="stop-color:#490038" />
        </linearGradient>
        <polygon id="lgr5" class="stxrx5" points="65,105.1 65.9,105.6 65.9,153 65,152.5 	" />
        <linearGradient id="lgr4_1_" gradientUnits="userSpaceOnUse" x1="37.4077" y1="137.2488" x2="96.7175" y2="137.2488">
            <stop offset="0" style="stop-color:#D25ABA" />
            <stop offset="1" style="stop-color:#A02DAC" />
        </linearGradient>
        <path id="lgr4" class="stxrx6" d="M37.7,118.8c3.8-2.8,21,1.3,27.3,14.5c6.3,13.2,14.1,27.2,31.6,22" />
        <linearGradient id="lgr3_1_" gradientUnits="userSpaceOnUse" x1="37.3395" y1="132.218" x2="96.849" y2="132.218">
            <stop offset="0" style="stop-color:#D8D5FF" />
            <stop offset="1" style="stop-color:#F9D4D9" />
        </linearGradient>
        <path id="lgr3" class="stxrx7" d="M37.7,127.4c0,0,13.7,14.3,27.7,7.8s21.1-5.7,31.1,0.9" />
        <linearGradient id="lgr2_1_" gradientUnits="userSpaceOnUse" x1="96.1442" y1="147.0876" x2="97.0068" y2="147.0876">
            <stop offset="0" style="stop-color:#88004F" />
            <stop offset="0.9927" style="stop-color:#490038" />
        </linearGradient>
        <polygon id="lgr2" class="stxrx8" points="96.1,123.1 97,123.6 97,171 96.2,170.5 	" />
        <linearGradient id="lgr1_1_" gradientUnits="userSpaceOnUse" x1="37.2692" y1="113.0908" x2="38.1318" y2="113.0908">
            <stop offset="0" style="stop-color:#88004F" />
            <stop offset="0.9927" style="stop-color:#490038" />
        </linearGradient>
        <polygon id="lgr1" class="stxrx9" points="37.3,89.1 38.1,89.6 38.1,137 37.3,136.5 	" />
    </g>
    <g id="Ring_2">
        <g id="ring22">

            <linearGradient id="SxVGID_1_" gradientUnits="userSpaceOnUse" x1="-20.3631" y1="676.9611" x2="12.0414" y2="676.9611" gradientTransform="matrix(0.866 0.5 0 1.1547 144.8704 -652.9064)">
                <stop offset="0" style="stop-color:#88004F" />
                <stop offset="0.9927" style="stop-color:#490038" />
            </linearGradient>
            <path class="stxrx10" d="M141.3,145.4c-7.7-4.5-14-16.5-14-26.8s6.3-15.1,14-10.6s14,16.5,14,26.8S149,149.9,141.3,145.4z
                                         M141.3,112.9c-5.7-3.3-10.4,0.2-10.4,7.8s4.7,16.5,10.4,19.8s10.4-0.2,10.4-7.8S147,116.2,141.3,112.9z" />
        </g>
        <g id="ring21">

            <linearGradient id="SxVGID_2_" gradientUnits="userSpaceOnUse" x1="-18.1275" y1="676.9611" x2="12.0414" y2="676.9611" gradientTransform="matrix(0.866 0.5 0 1.1547 144.8704 -652.9064)">
                <stop offset="1.944385e-07" style="stop-color:#FE5D7B" />
                <stop offset="0.5073" style="stop-color:#EB8273" />
                <stop offset="0.9968" style="stop-color:#FBEBB2" />
            </linearGradient>
            <path class="stxrx11" d="M141.3,108c-2.9-1.6-5.5-2-7.7-1.4l1.8,5.3c1.7-0.6,3.7-0.3,5.9,0.9c5.7,3.3,10.4,12.2,10.4,19.8
                                        c0,7.6-4.7,11.2-10.4,7.9c-3.8-2.2-7.1-6.9-8.9-12l-3.2,0.6c2.4,6.9,6.9,13.3,12.1,16.2c7.7,4.5,14-0.3,14-10.6
                                        C155.3,124.5,149,112.5,141.3,108z" />
        </g>
    </g>
    <g id="Ring_1">
        <g id="ring12">

            <linearGradient id="SxVGID_3_" gradientUnits="userSpaceOnUse" x1="-21.5183" y1="717.9266" x2="10.8862" y2="717.9266" gradientTransform="matrix(0.866 0.5 0 1.1547 144.8704 -652.9064)">
                <stop offset="0" style="stop-color:#88004F" />
                <stop offset="0.9927" style="stop-color:#490038" />
            </linearGradient>
            <path class="stxrx12" d="M140.3,192.1c-7.7-4.5-14-16.5-14-26.8s6.3-15.1,14-10.6s14,16.5,14,26.8C154.3,191.8,148,196.6,140.3,192.1
                                        z M140.3,159.6c-5.7-3.3-10.4,0.2-10.4,7.8s4.7,16.5,10.4,19.8c5.7,3.3,10.4-0.2,10.4-7.8S146,162.9,140.3,159.6z" />
        </g>
        <g id="ring11">

            <linearGradient id="SxVGID_4_" gradientUnits="userSpaceOnUse" x1="-19.2816" y1="718.4722" x2="10.8872" y2="718.4722" gradientTransform="matrix(0.866 0.5 0 1.1547 144.8704 -652.9064)">
                <stop offset="1.944385e-07" style="stop-color:#FE5D7B" />
                <stop offset="0.5073" style="stop-color:#EB8273" />
                <stop offset="0.9968" style="stop-color:#FBEBB2" />
            </linearGradient>
            <path class="stxrx13" d="M145.3,158.9l-1.3,3.8c3.9,4.2,6.7,10.9,6.7,16.8c0,7.6-4.7,11.2-10.4,7.9c-3.8-2.2-7.1-6.9-8.9-12l-3.2,0.6
                                        c2.4,6.9,6.9,13.3,12.1,16.2c7.7,4.5,14-0.3,14-10.6C154.3,173.6,150.6,164.6,145.3,158.9z" />
        </g>
    </g>
    <g id="Text_Bars">
        <linearGradient id="tbarrr1_1_" gradientUnits="userSpaceOnUse" x1="71.1135" y1="75.6687" x2="113.0408" y2="99.8754">
            <stop offset="0" style="stop-color:#88004F" />
            <stop offset="0.9927" style="stop-color:#490038" />
        </linearGradient>
        <polygon id="tbarrr1_2_" class="stxrx14" points="71.9,74.4 112.2,97.7 112.3,101.2 71.9,77.8 	">
            <rect>
                <animate id="tbarr1" begin="0;tbarr1.end" dur="2s" attributeName="visibility" from="hide" to="hide" />
            </rect>
            <animate attributeName="points" begin="tbarr1.begin" dur="1.05s" from="71.9,74.4 112.2,97.7 112.3,101.2 71.9,77.8 " to="71.9,74.4 84.2,81.7 84.3,85.2 71.9,77.8" />

            <animate attributeName="points" dur="1.05s" begin="tbarr1.begin+1s" from="71.9,74.4 84.2,81.7 84.3,85.2 71.9,77.8" to="71.9,74.4 112.2,97.7 112.3,101.2 71.9,77.8" />

        </polygon>
        <linearGradient id="tbarrr2_1_" gradientUnits="userSpaceOnUse" x1="71.1143" y1="83.0375" x2="114.9738" y2="108.3598">
            <stop offset="0" style="stop-color:#88004F" />
            <stop offset="0.9927" style="stop-color:#490038" />
        </linearGradient>
        <polygon id="tbarrr2" class="stxrx15" points="71.9,81.7 114.2,106.1 114.2,109.6 71.9,85.2 	">
            <rect>
                <animate id="tbarr2" begin="0;tbarr2.end" dur="4s" attributeName="visibility" from="hide" to="hide" />
            </rect>
            <animate attributeName="points" begin="tbarr2.begin" dur="2.05s" from="71.9,81.7 114.2,106.1 114.2,109.6 71.9,85.2" to="71.9,81.7 74.2,83.1 74.2,86.6 71.9,85.2" />

            <animate attributeName="points" dur="2.05s" begin="tbarr2.begin+2s" from="71.9,81.7 74.2,83.1 74.2,86.6 71.9,85.2" to="71.9,81.7 114.2,106.1 114.2,109.6 71.9,85.2" />

        </polygon>
        <linearGradient id="tbarrr3_1_" gradientUnits="userSpaceOnUse" x1="71.1135" y1="91.2888" x2="103.6598" y2="110.0794">
            <stop offset="0" style="stop-color:#88004F" />
            <stop offset="0.9927" style="stop-color:#490038" />
        </linearGradient>
        <polygon id="tbarrr3" class="stxrx16" points="71.9,90 102.8,107.9 102.9,111.4 71.9,93.5 	">
            <rect>
                <animate id="tbarr3" begin="0;tbarr3.end" dur="4s" attributeName="visibility" from="hide" to="hide" />
            </rect>
            <animate attributeName="points" begin="tbarr3.begin" dur="2.05s" from="71.9,90 102.8,107.9 102.9,111.4 71.9,93.5" to="71.9,90 88.8,99.9 88.9,103.4 71.9,93.5" />

            <animate attributeName="points" dur="2.05s" begin="tbarr3.begin+2s" from="71.9,90 88.8,99.9 88.9,103.4 71.9,93.5" to="71.9,90 102.8,107.9 102.9,111.4 71.9,93.5" />

        </polygon>
    </g>
</svg>
