<svg width="893" height="412" viewBox="0 0 893 412" fill="none" xmlns="http://www.w3.org/2000/svg">
<path d="M261.809 190.502V46.8477H171.328V189.524L216.568 216.993L220 215.659L261.809 190.502Z" fill="url(#paint0_linear)"/>
<path d="M228.578 233.171L219.909 238.061C218.194 239.038 216.117 239.038 214.401 238.061L172.14 214.059C171.057 213.437 171.057 211.837 172.14 211.303L214.13 187.924C216.026 186.857 218.284 186.857 220.18 188.013L260.725 211.481C261.989 212.192 261.989 214.059 260.725 214.859L228.578 233.171Z" stroke="url(#paint1_linear)" stroke-width="2" stroke-miterlimit="10"/>
<path d="M261.809 190.502C261.809 190.502 261.447 199.036 261.357 200.636L219.999 224.193C218.284 225.171 216.207 225.171 214.491 224.193L171.779 199.747C171.508 196.902 171.418 189.524 171.418 189.524C173.224 188.457 259.912 189.435 261.809 190.502Z" fill="url(#paint2_linear)"/>
<path d="M220.27 165.522L260.815 188.991C262.079 189.702 262.079 191.569 260.815 192.369L219.999 215.659C218.284 216.637 216.207 216.637 214.491 215.659L172.23 191.658C171.147 191.035 171.147 189.435 172.23 188.902L214.22 165.522C216.026 164.367 218.374 164.456 220.27 165.522Z" fill="url(#paint3_linear)"/>
<path d="M253.772 97.7844C253.772 105.429 241.852 112.363 235.35 116.008L194.173 146.677C187.672 150.321 178.01 142.321 178.01 134.676C178.01 131.298 179.003 127.564 180.899 123.919C182.705 120.453 185.143 117.341 187.852 115.297C188.394 114.852 188.846 114.052 188.846 113.43C188.846 104.452 194.986 93.6952 202.481 89.4283C206.725 87.0281 210.698 87.117 213.317 89.6061C213.498 89.7839 213.859 89.8728 214.22 89.695C214.581 89.5172 214.943 89.1616 215.123 88.806C217.29 84.9835 220.27 81.9611 223.25 80.1832C226.32 78.4053 229.029 78.4942 231.377 79.4721C234.267 80.6277 238.24 82.3167 239.956 85.0724C240.317 85.6947 235.441 88.0949 236.073 87.7393C242.304 84.7169 253.772 90.495 253.772 97.7844Z" fill="url(#paint4_linear)"/>
<path d="M253.862 99.4734C253.862 107.118 248.625 116.363 242.213 120.008L196.612 145.965C190.11 149.61 184.872 146.41 184.872 138.676C184.872 135.298 185.866 131.564 187.762 127.92C189.568 124.453 192.006 121.342 194.715 119.297C195.257 118.853 195.709 118.052 195.709 117.43C195.709 108.452 201.849 97.6955 209.344 93.4286C213.588 91.0284 217.561 91.1173 220.18 93.6064C220.361 93.7842 220.722 93.873 221.083 93.6953C221.444 93.5175 221.805 93.1619 221.986 92.8063C224.153 88.9838 227.133 85.9614 230.113 84.1835C233.183 82.4056 236.073 82.2278 238.24 83.4723C240.407 84.8058 241.672 87.4726 241.762 91.1173C241.762 91.8285 242.213 92.0951 242.845 91.8285C249.076 88.806 253.862 92.184 253.862 99.4734Z" fill="url(#paint5_linear)"/>
<path d="M338.925 158.678L380.915 135.298C382.811 134.231 385.069 134.231 386.965 135.387L427.51 158.855C428.774 159.566 428.774 161.433 427.51 162.233L395.363 180.635" stroke="url(#paint6_linear)" stroke-width="2" stroke-miterlimit="10"/>
<path d="M338.925 158.588C337.57 159.3 335.945 158.322 336.035 156.811L337.119 120.186" stroke="url(#paint7_linear)" stroke-width="2" stroke-miterlimit="10"/>
<path d="M353.644 50.759L349.942 124.364C349.942 125.342 349.4 126.32 348.497 126.764L321.136 146.321C319.691 147.121 314.724 143.921 314.724 142.232V68.4491C314.724 66.7601 315.627 65.2489 317.072 64.4489L347.142 47.381C348.316 46.7588 353.644 49.3367 353.644 50.759Z" fill="url(#paint8_linear)"/>
<path d="M353.644 51.1146V126.409C353.644 127.386 353.102 128.364 352.199 128.809L321.678 146.143C320.233 146.943 318.336 145.965 318.336 144.276V70.4937C318.336 68.8047 319.239 67.2935 320.684 66.4934L350.754 49.4256C352.109 48.8033 353.644 49.6923 353.644 51.1146Z" fill="url(#paint9_linear)"/>
<path d="M351.477 56.2705V115.03L320.594 132.898V73.7828L351.477 56.2705Z" fill="url(#paint10_linear)"/>
<path d="M338.383 59.2041L332.965 62.3154C332.785 62.4043 332.604 62.671 332.604 62.9376V63.0265C332.604 63.5599 333.236 63.9155 333.688 63.6488L339.106 60.4486C339.286 60.3597 339.467 60.093 339.467 59.8264C339.467 59.293 338.835 58.9374 338.383 59.2041Z" fill="url(#paint11_linear)"/>
<path d="M340.099 128.631C340.099 130.764 338.564 133.342 336.758 134.409C334.862 135.476 333.417 134.587 333.417 132.453C333.417 130.32 334.952 127.742 336.758 126.675C338.564 125.609 340.099 126.586 340.099 128.631Z" fill="url(#paint12_linear)"/>
<path d="M323.484 76.5386V80.5389L341.183 70.4937V66.4934L323.484 76.5386Z" fill="url(#paint13_linear)"/>
<path d="M323.484 115.475V119.386L341.183 109.341V105.429L323.484 115.475Z" fill="url(#paint14_linear)"/>
<path d="M323.484 83.5612V87.5615L337.48 79.4721V75.5607L323.484 83.5612Z" fill="url(#paint15_linear)"/>
<path d="M323.484 98.4067V113.786L337.48 105.696V90.4062L323.484 98.4067Z" fill="url(#paint16_linear)"/>
<path d="M323.484 90.2284V94.2287L343.711 82.4945V78.5831L323.484 90.2284Z" fill="url(#paint17_linear)"/>
<path d="M323.484 122.853V126.853L348.497 112.452V108.452L323.484 122.853Z" fill="url(#paint18_linear)"/>
<path opacity="0.7" d="M358.34 58.2262L359.875 59.1151V117.875L329.082 135.654L327.457 134.765V75.7385L358.34 58.2262Z" fill="url(#paint19_linear)"/>
<path opacity="0.8" d="M359.875 59.1151V117.875L329.082 135.654V76.6274L359.875 59.1151Z" fill="url(#paint20_linear)"/>
<path d="M490.72 295.131L328.45 203.392C325.38 201.614 325.29 197.258 328.45 195.48L431.393 136.543C432.837 135.743 434.643 135.743 436.088 136.543L601.789 230.238C604.86 232.016 604.95 236.372 601.789 238.15L501.917 295.131C498.486 297.087 494.151 297.087 490.72 295.131Z" stroke="url(#paint21_linear)" stroke-width="2" stroke-miterlimit="10"/>
<path d="M595.559 100.718C595.559 97.1622 593.572 93.8731 590.411 92.0952L438.526 6.31158C434.643 4.17811 426.516 4.80037 425.433 10.223L591.856 221.171L596.462 218.148" fill="url(#paint22_linear)"/>
<path d="M591.857 221.171L590.954 100.629C590.954 97.0732 588.967 93.7841 585.806 92.0062L433.921 6.31151C430.038 4.17803 425.342 6.93378 425.342 11.2896L426.336 130.231L591.857 221.171Z" fill="url(#paint23_linear)"/>
<path d="M522.506 267.84L591.224 228.638L591.947 221.259C589.057 219.659 424.981 136.543 422.092 138.143L345.246 175.301C338.835 178.857 340.189 192.724 346.51 196.28L491.984 279.841C494.964 281.53 498.576 281.53 501.556 279.841L522.506 267.84Z" fill="url(#paint24_linear)"/>
<path d="M422.001 131.387L346.51 173.345C340.099 176.901 340.099 185.879 346.42 189.524L491.894 273.085C494.874 274.774 498.486 274.774 501.466 273.085L591.947 221.171L431.393 131.387C428.503 129.787 424.891 129.698 422.001 131.387Z" fill="url(#paint25_linear)"/>
<path d="M458.212 258.329C450.536 254.24 442.861 250.062 435.275 245.795C427.69 241.528 420.105 237.172 412.52 232.816C405.025 228.46 397.44 224.015 390.035 219.482C382.54 215.037 375.135 210.414 367.731 205.703C375.406 209.792 383.082 213.97 390.667 218.237C398.252 222.504 405.838 226.86 413.423 231.216C420.918 235.661 428.503 240.016 435.908 244.55C443.493 248.995 450.897 253.617 458.212 258.329Z" fill="white"/>
<path d="M567.385 236.727L562.058 239.838C561.787 240.016 561.696 240.194 561.696 240.461V242.683C561.696 243.305 562.328 243.661 562.87 243.305L568.198 240.194C568.469 240.016 568.559 239.838 568.559 239.572V237.349C568.559 236.816 567.927 236.372 567.385 236.727Z" fill="url(#paint26_linear)"/>
<path d="M556.73 242.95L553.388 244.905C553.208 244.994 553.117 245.172 553.117 245.35V248.283C553.117 248.639 553.569 248.906 553.84 248.728L557.181 246.772C557.362 246.683 557.452 246.506 557.452 246.328V243.394C557.542 242.95 557.091 242.772 556.73 242.95Z" fill="url(#paint27_linear)"/>
<path d="M424.801 198.147L466.339 221.793C467.784 222.593 467.784 224.638 466.429 225.526L448.46 236.372C447.376 236.994 446.112 236.994 445.028 236.372L402.497 212.192C401.232 211.481 401.232 209.703 402.497 208.992L421.64 198.147C422.724 197.613 423.898 197.613 424.801 198.147Z" fill="url(#paint28_linear)"/>
<path opacity="0.8" d="M425.614 144.365L427.961 143.032C428.503 142.765 429.316 142.765 429.858 143.032L436.088 146.588C436.63 146.854 436.63 147.388 436.088 147.654L433.741 148.988C433.199 149.255 432.386 149.255 431.844 148.988L425.614 145.432C425.162 145.165 425.162 144.632 425.614 144.365ZM435.185 150.855L441.416 154.41C441.958 154.677 442.771 154.677 443.312 154.41L445.66 153.077C446.202 152.81 446.202 152.277 445.66 152.01L439.429 148.455C438.888 148.188 438.075 148.188 437.533 148.455L435.185 149.788C434.644 150.055 434.644 150.588 435.185 150.855ZM444.757 156.277L450.988 159.833C451.53 160.1 452.342 160.1 452.884 159.833L455.232 158.5C455.774 158.233 455.774 157.7 455.232 157.433L449.001 153.877C448.46 153.61 447.647 153.61 447.105 153.877L444.757 155.211C444.215 155.477 444.215 156.011 444.757 156.277ZM454.239 161.7L460.47 165.256C461.011 165.522 461.824 165.522 462.366 165.256L464.714 163.922C465.255 163.656 465.255 163.122 464.714 162.856L458.483 159.3C457.941 159.033 457.128 159.033 456.587 159.3L454.239 160.633C453.787 160.9 453.787 161.433 454.239 161.7ZM463.811 167.122L470.041 170.678C470.583 170.945 471.396 170.945 471.938 170.678L474.285 169.345C474.827 169.078 474.827 168.545 474.285 168.278L468.055 164.722C467.513 164.456 466.7 164.456 466.158 164.722L463.811 166.056C463.269 166.411 463.269 166.856 463.811 167.122ZM473.382 172.545L479.613 176.101C480.155 176.368 480.968 176.368 481.51 176.101L483.857 174.767C484.399 174.501 484.399 173.967 483.857 173.701L477.627 170.145C477.085 169.878 476.272 169.878 475.73 170.145L473.382 171.478C472.841 171.834 472.841 172.278 473.382 172.545ZM482.864 177.968L489.095 181.523C489.637 181.79 490.449 181.79 490.991 181.523L493.339 180.19C493.881 179.923 493.881 179.39 493.339 179.123L487.108 175.567C486.566 175.301 485.754 175.301 485.212 175.567L482.864 176.901C482.413 177.256 482.413 177.701 482.864 177.968ZM492.436 183.39L498.667 186.946C499.208 187.213 500.021 187.213 500.563 186.946L502.911 185.613C503.453 185.346 503.453 184.813 502.911 184.546L496.68 180.99C496.138 180.723 495.326 180.723 494.784 180.99L492.436 182.324C491.894 182.679 491.894 183.124 492.436 183.39ZM502.008 188.813L508.238 192.369C508.78 192.635 509.593 192.635 510.135 192.369L512.483 191.035C513.024 190.769 513.024 190.235 512.483 189.968L506.252 186.413C505.71 186.146 504.897 186.146 504.356 186.413L502.008 187.746C501.466 188.102 501.466 188.546 502.008 188.813ZM511.489 194.235L517.72 197.791C518.262 198.058 519.075 198.058 519.616 197.791L521.964 196.458C522.506 196.191 522.506 195.658 521.964 195.391L515.733 191.835C515.192 191.569 514.379 191.569 513.837 191.835L511.489 193.169C511.038 193.524 511.038 193.969 511.489 194.235ZM521.061 199.658L527.292 203.214C527.834 203.481 528.646 203.481 529.188 203.214L531.536 201.88C532.078 201.614 532.078 201.08 531.536 200.814L525.305 197.258C524.763 196.991 523.951 196.991 523.409 197.258L521.061 198.591C520.519 198.947 520.519 199.391 521.061 199.658ZM530.633 205.081L536.864 208.636C537.406 208.903 538.218 208.903 538.76 208.636L541.108 207.303C541.65 207.036 541.65 206.503 541.108 206.236L534.877 202.68C534.335 202.414 533.523 202.414 532.981 202.68L530.633 204.014C530.091 204.369 530.091 204.814 530.633 205.081ZM540.115 210.503L546.345 214.059C546.887 214.326 547.7 214.326 548.242 214.059L550.589 212.726C551.131 212.459 551.131 211.926 550.589 211.659L544.359 208.103C543.817 207.836 543.004 207.836 542.462 208.103L540.115 209.436C539.663 209.792 539.663 210.237 540.115 210.503ZM560.161 217.081L553.931 213.526C553.389 213.259 552.576 213.259 552.034 213.526L549.686 214.859C549.145 215.126 549.145 215.659 549.686 215.926L555.917 219.482C556.459 219.748 557.272 219.748 557.813 219.482L560.161 218.148C560.703 217.881 560.703 217.437 560.161 217.081ZM530.633 233.527L517.269 225.971C516.546 225.615 515.463 225.615 514.83 225.971L510.767 228.282C510.044 228.638 510.044 229.26 510.767 229.705L524.131 237.261C524.854 237.616 525.937 237.616 526.569 237.261L530.633 234.949C531.265 234.594 531.265 233.972 530.633 233.527ZM538.489 229.082L528.375 223.304C527.653 222.949 526.569 222.949 525.937 223.304L521.874 225.615C521.151 225.971 521.151 226.593 521.874 227.038L531.988 232.816C532.71 233.171 533.794 233.171 534.426 232.816L538.489 230.505C539.212 230.06 539.212 229.438 538.489 229.082ZM554.292 220.104L543.727 214.148C543.004 213.792 541.921 213.792 541.288 214.148L537.225 216.459C536.503 216.815 536.503 217.437 537.225 217.882L547.79 223.837C548.512 224.193 549.596 224.193 550.228 223.837L554.292 221.526C554.924 221.171 554.924 220.548 554.292 220.104ZM535.419 215.392L539.482 213.081C540.205 212.726 540.205 212.103 539.482 211.659L535.419 209.348C534.697 208.992 533.613 208.992 532.981 209.348L528.917 211.659C528.195 212.014 528.195 212.637 528.917 213.081L532.981 215.392C533.613 215.748 534.787 215.748 535.419 215.392ZM526.208 210.148L530.272 207.836C530.994 207.481 530.994 206.859 530.272 206.414L526.208 204.103C525.486 203.747 524.402 203.747 523.77 204.103L519.707 206.414C518.984 206.77 518.984 207.392 519.707 207.836L523.77 210.148C524.402 210.503 525.486 210.503 526.208 210.148ZM516.998 204.903L521.061 202.592C521.784 202.236 521.784 201.614 521.061 201.169L516.998 198.858C516.275 198.502 515.192 198.502 514.56 198.858L510.496 201.169C509.774 201.525 509.774 202.147 510.496 202.592L514.56 204.903C515.192 205.258 516.275 205.258 516.998 204.903ZM507.697 199.658L511.76 197.347C512.483 196.991 512.483 196.369 511.76 195.924L507.697 193.613C506.974 193.258 505.891 193.258 505.259 193.613L501.195 195.924C500.473 196.28 500.473 196.902 501.195 197.347L505.259 199.658C505.891 200.014 507.065 200.014 507.697 199.658ZM495.958 188.368L491.894 190.68C491.172 191.035 491.172 191.657 491.894 192.102L495.958 194.413C496.68 194.769 497.764 194.769 498.396 194.413L502.459 192.102C503.182 191.746 503.182 191.124 502.459 190.68L498.396 188.368C497.764 188.013 496.68 188.013 495.958 188.368ZM486.747 183.124L482.683 185.435C481.961 185.79 481.961 186.413 482.683 186.857L486.747 189.168C487.469 189.524 488.553 189.524 489.185 189.168L493.249 186.857C493.971 186.502 493.971 185.879 493.249 185.435L489.185 183.124C488.553 182.768 487.469 182.768 486.747 183.124ZM477.536 177.879L473.473 180.19C472.75 180.546 472.75 181.168 473.473 181.612L477.536 183.924C478.259 184.279 479.342 184.279 479.974 183.924L484.038 181.612C484.76 181.257 484.76 180.635 484.038 180.19L479.974 177.879C479.342 177.523 478.168 177.523 477.536 177.879ZM464.262 174.945C463.54 175.301 463.54 175.923 464.262 176.368L468.326 178.679C469.048 179.034 470.132 179.034 470.764 178.679L474.827 176.368C475.55 176.012 475.55 175.39 474.827 174.945L470.764 172.634C470.041 172.278 468.958 172.278 468.326 172.634L464.262 174.945ZM455.051 171.123L459.115 173.434C459.837 173.79 460.921 173.79 461.553 173.434L465.617 171.123C466.339 170.767 466.339 170.145 465.617 169.7L461.553 167.389C460.831 167.034 459.747 167.034 459.115 167.389L455.051 169.7C454.329 170.056 454.329 170.678 455.051 171.123ZM445.751 165.878L449.814 168.189C450.536 168.545 451.62 168.545 452.252 168.189L456.316 165.878C457.038 165.522 457.038 164.9 456.316 164.456L452.252 162.144C451.53 161.789 450.446 161.789 449.814 162.144L445.751 164.456C445.118 164.811 445.118 165.433 445.751 165.878ZM436.54 160.544L440.603 162.856C441.326 163.211 442.409 163.211 443.042 162.856L447.105 160.544C447.827 160.189 447.827 159.566 447.105 159.122L443.042 156.811C442.319 156.455 441.236 156.455 440.603 156.811L436.54 159.122C435.908 159.566 435.908 160.189 436.54 160.544ZM539.934 228.282C540.656 228.638 541.74 228.638 542.372 228.282L546.436 225.971C547.158 225.615 547.158 224.993 546.436 224.549L542.372 222.237C541.65 221.882 540.566 221.882 539.934 222.237L535.87 224.549C535.148 224.904 535.148 225.526 535.87 225.971L539.934 228.282ZM530.543 222.949C531.265 223.304 532.349 223.304 532.981 222.949L537.044 220.637C537.767 220.282 537.767 219.659 537.044 219.215L532.981 216.904C532.258 216.548 531.175 216.548 530.543 216.904L526.479 219.215C525.757 219.571 525.757 220.193 526.479 220.637L530.543 222.949ZM521.242 217.704C521.964 218.059 523.048 218.059 523.68 217.704L527.743 215.392C528.466 215.037 528.466 214.415 527.743 213.97L523.68 211.659C522.957 211.303 521.874 211.303 521.242 211.659L517.178 213.97C516.456 214.326 516.456 214.948 517.178 215.392L521.242 217.704ZM507.968 210.148L512.031 212.459C512.753 212.814 513.837 212.814 514.469 212.459L518.533 210.148C519.255 209.792 519.255 209.17 518.533 208.725L514.469 206.414C513.747 206.058 512.663 206.058 512.031 206.414L507.968 208.725C507.245 209.081 507.245 209.703 507.968 210.148ZM505.078 207.125L509.141 204.814C509.864 204.458 509.864 203.836 509.141 203.392L505.078 201.08C504.356 200.725 503.272 200.725 502.64 201.08L498.576 203.392C497.854 203.747 497.854 204.369 498.576 204.814L502.64 207.125C503.362 207.481 504.446 207.481 505.078 207.125ZM495.777 201.792L499.841 199.48C500.563 199.125 500.563 198.502 499.841 198.058L495.777 195.747C495.055 195.391 493.971 195.391 493.339 195.747L489.275 198.058C488.553 198.414 488.553 199.036 489.275 199.48L493.339 201.792C494.061 202.236 495.145 202.236 495.777 201.792ZM479.974 194.235L484.038 196.547C484.76 196.902 485.844 196.902 486.476 196.547L490.54 194.235C491.262 193.88 491.262 193.258 490.54 192.813L486.476 190.502C485.754 190.146 484.67 190.146 484.038 190.502L479.974 192.813C479.342 193.258 479.342 193.88 479.974 194.235ZM474.737 191.213C475.459 191.569 476.543 191.569 477.175 191.213L481.239 188.902C481.961 188.546 481.961 187.924 481.239 187.479L477.175 185.168C476.453 184.813 475.369 184.813 474.737 185.168L470.673 187.479C469.951 187.835 469.951 188.457 470.673 188.902L474.737 191.213ZM465.436 185.968C466.158 186.324 467.242 186.324 467.874 185.968L471.938 183.657C472.66 183.301 472.66 182.679 471.938 182.235L467.874 179.923C467.152 179.568 466.068 179.568 465.436 179.923L461.373 182.235C460.65 182.59 460.65 183.212 461.373 183.657L465.436 185.968ZM458.573 180.635L462.637 178.323C463.359 177.968 463.359 177.345 462.637 176.901L458.573 174.59C457.851 174.234 456.767 174.234 456.135 174.59L452.072 176.901C451.349 177.256 451.349 177.879 452.072 178.323L456.135 180.635C456.767 180.99 457.851 180.99 458.573 180.635ZM449.272 175.39L453.336 173.078C454.058 172.723 454.058 172.101 453.336 171.656L449.272 169.345C448.55 168.989 447.466 168.989 446.834 169.345L442.771 171.656C442.048 172.012 442.048 172.634 442.771 173.078L446.834 175.39C447.466 175.745 448.55 175.745 449.272 175.39ZM437.443 170.056C438.165 170.412 439.249 170.412 439.881 170.056L443.945 167.745C444.667 167.389 444.667 166.767 443.945 166.322L439.881 164.011C439.159 163.656 438.075 163.656 437.443 164.011L433.379 166.322C432.657 166.678 432.657 167.3 433.379 167.745L437.443 170.056ZM516.636 218.059L512.573 220.371C511.85 220.726 511.85 221.348 512.573 221.793L516.636 224.104C517.359 224.46 518.442 224.46 519.075 224.104L523.138 221.793C523.86 221.437 523.86 220.815 523.138 220.371L519.075 218.059C518.442 217.615 517.269 217.615 516.636 218.059ZM513.566 214.948L509.503 212.637C508.78 212.281 507.697 212.281 507.065 212.637L503.001 214.948C502.279 215.304 502.279 215.926 503.001 216.37L507.065 218.682C507.787 219.037 508.871 219.037 509.503 218.682L513.566 216.37C514.289 215.926 514.289 215.304 513.566 214.948ZM497.583 207.214L493.519 209.525C492.797 209.881 492.797 210.503 493.519 210.948L497.583 213.259C498.305 213.615 499.389 213.615 500.021 213.259L504.085 210.948C504.807 210.592 504.807 209.97 504.085 209.525L500.021 207.214C499.389 206.859 498.305 206.859 497.583 207.214ZM494.603 204.103L490.54 201.792C489.817 201.436 488.734 201.436 488.101 201.792L484.038 204.103C483.316 204.458 483.316 205.081 484.038 205.525L488.101 207.836C488.824 208.192 489.907 208.192 490.54 207.836L494.603 205.525C495.235 205.081 495.235 204.458 494.603 204.103ZM485.031 200.103C485.754 199.747 485.754 199.125 485.031 198.68L480.968 196.369C480.245 196.013 479.162 196.013 478.53 196.369L474.466 198.68C473.744 199.036 473.744 199.658 474.466 200.103L478.53 202.414C479.252 202.769 480.336 202.769 480.968 202.414L485.031 200.103ZM464.985 194.68L469.048 196.991C469.77 197.347 470.854 197.347 471.486 196.991L475.55 194.68C476.272 194.324 476.272 193.702 475.55 193.258L471.486 190.946C470.764 190.591 469.68 190.591 469.048 190.946L464.985 193.258C464.352 193.702 464.352 194.324 464.985 194.68ZM455.503 189.257L459.567 191.569C460.289 191.924 461.372 191.924 462.005 191.569L466.068 189.257C466.791 188.902 466.791 188.279 466.068 187.835L462.005 185.524C461.282 185.168 460.199 185.168 459.567 185.524L455.503 187.835C454.781 188.279 454.781 188.902 455.503 189.257ZM445.931 183.835L449.995 186.146C450.717 186.502 451.801 186.502 452.433 186.146L456.496 183.835C457.219 183.479 457.219 182.857 456.496 182.412L452.433 180.101C451.71 179.746 450.627 179.746 449.995 180.101L445.931 182.412C445.299 182.857 445.299 183.479 445.931 183.835ZM436.45 178.412L440.513 180.723C441.236 181.079 442.319 181.079 442.951 180.723L447.015 178.412C447.737 178.057 447.737 177.434 447.015 176.99L442.951 174.679C442.229 174.323 441.145 174.323 440.513 174.679L436.45 176.99C435.727 177.434 435.727 178.057 436.45 178.412ZM430.941 175.301C431.664 175.656 432.747 175.656 433.379 175.301L437.443 172.99C438.165 172.634 438.165 172.012 437.443 171.567L433.379 169.256C432.657 168.9 431.573 168.9 430.941 169.256L426.878 171.567C426.155 171.923 426.155 172.545 426.878 172.99L430.941 175.301ZM478.168 212.992L435.727 188.813C435.005 188.457 433.921 188.457 433.289 188.813L429.226 191.124C428.503 191.48 428.503 192.102 429.226 192.546L471.667 216.726C472.389 217.081 473.473 217.081 474.105 216.726L478.168 214.415C478.8 214.059 478.8 213.348 478.168 212.992ZM430.219 185.702L424.53 182.412C423.807 182.057 422.724 182.057 422.092 182.412L418.028 184.724C417.306 185.079 417.306 185.702 418.028 186.146L423.717 189.435C424.44 189.791 425.523 189.791 426.155 189.435L430.219 187.124C430.851 186.768 430.851 186.146 430.219 185.702ZM488.914 219.126L483.225 215.837C482.503 215.481 481.419 215.481 480.787 215.837L476.724 218.148C476.001 218.504 476.001 219.126 476.724 219.571L482.413 222.86C483.135 223.215 484.219 223.215 484.851 222.86L488.914 220.548C489.546 220.104 489.546 219.482 488.914 219.126ZM419.202 179.568L415.139 177.256C414.416 176.901 413.333 176.901 412.701 177.256L408.637 179.568C407.915 179.923 407.915 180.546 408.637 180.99L412.701 183.301C413.423 183.657 414.507 183.657 415.139 183.301L419.202 180.99C419.925 180.546 419.925 179.923 419.202 179.568ZM410.714 174.679L406.65 172.367C405.928 172.012 404.844 172.012 404.212 172.367L400.149 174.679C399.426 175.034 399.426 175.656 400.149 176.101L404.212 178.412C404.935 178.768 406.018 178.768 406.65 178.412L410.714 176.101C411.436 175.656 411.436 175.034 410.714 174.679ZM508.419 227.038L512.483 224.726C513.205 224.371 513.205 223.749 512.483 223.304L508.419 220.993C507.697 220.637 506.613 220.637 505.981 220.993L501.917 223.304C501.195 223.66 501.195 224.282 501.917 224.726L505.981 227.038C506.613 227.482 507.697 227.482 508.419 227.038ZM499.57 222.06L503.633 219.748C504.356 219.393 504.356 218.77 503.633 218.326L499.57 216.015C498.847 215.659 497.764 215.659 497.131 216.015L493.068 218.326C492.346 218.682 492.346 219.304 493.068 219.748L497.131 222.06C497.764 222.415 498.847 222.415 499.57 222.06ZM519.887 240.372L514.56 237.35C514.198 237.172 513.656 237.172 513.386 237.35L511.309 238.505C510.947 238.683 510.947 239.039 511.309 239.216L516.636 242.239C516.998 242.417 517.539 242.417 517.81 242.239L519.887 241.083C520.158 240.905 520.158 240.639 519.887 240.372ZM504.446 231.66L499.118 228.638C498.757 228.46 498.215 228.46 497.944 228.638L495.867 229.793C495.506 229.971 495.506 230.327 495.867 230.505L501.195 233.527C501.556 233.705 502.098 233.705 502.369 233.527L504.446 232.371C504.807 232.194 504.807 231.838 504.446 231.66ZM512.212 236.105L506.884 233.083C506.523 232.905 505.981 232.905 505.71 233.083L503.633 234.238C503.272 234.416 503.272 234.772 503.633 234.949L508.961 237.972C509.322 238.15 509.864 238.15 510.135 237.972L512.212 236.816C512.573 236.549 512.573 236.283 512.212 236.105ZM516.275 233.794L510.947 230.771C510.586 230.593 510.044 230.593 509.774 230.771L507.697 231.927C507.335 232.105 507.335 232.46 507.697 232.638L513.024 235.66C513.386 235.838 513.927 235.838 514.198 235.66L516.275 234.505C516.636 234.238 516.636 233.971 516.275 233.794ZM497.583 224.015L493.519 221.704C492.797 221.348 491.713 221.348 491.081 221.704L487.018 224.015C486.295 224.371 486.295 224.993 487.018 225.438L491.081 227.749C491.804 228.104 492.887 228.104 493.519 227.749L497.583 225.438C498.215 225.082 498.215 224.46 497.583 224.015ZM488.192 216.993C488.914 217.348 489.998 217.348 490.63 216.993L494.693 214.681C495.416 214.326 495.416 213.703 494.693 213.259L490.63 210.948C489.907 210.592 488.824 210.592 488.192 210.948L484.128 213.259C483.406 213.615 483.406 214.237 484.128 214.681L488.192 216.993ZM475.279 209.703L479.342 212.014C480.065 212.37 481.148 212.37 481.78 212.014L485.844 209.703C486.566 209.348 486.566 208.725 485.844 208.281L481.78 205.97C481.058 205.614 479.974 205.614 479.342 205.97L475.279 208.281C474.647 208.636 474.647 209.259 475.279 209.703ZM466.429 204.636L470.493 206.947C471.215 207.303 472.299 207.303 472.931 206.947L476.994 204.636C477.717 204.281 477.717 203.658 476.994 203.214L472.931 200.903C472.209 200.547 471.125 200.547 470.493 200.903L466.429 203.214C465.797 203.569 465.797 204.281 466.429 204.636ZM457.58 199.569L461.643 201.88C462.366 202.236 463.449 202.236 464.082 201.88L468.145 199.569C468.867 199.214 468.867 198.591 468.145 198.147L464.082 195.836C463.359 195.48 462.276 195.48 461.643 195.836L457.58 198.147C456.948 198.591 456.948 199.214 457.58 199.569ZM448.73 194.591L452.794 196.902C453.516 197.258 454.6 197.258 455.232 196.902L459.296 194.591C460.018 194.235 460.018 193.613 459.296 193.169L455.232 190.857C454.51 190.502 453.426 190.502 452.794 190.857L448.73 193.169C448.008 193.524 448.008 194.147 448.73 194.591ZM439.881 189.524L443.945 191.835C444.667 192.191 445.751 192.191 446.383 191.835L450.446 189.524C451.169 189.168 451.169 188.546 450.446 188.102L446.383 185.79C445.66 185.435 444.577 185.435 443.945 185.79L439.881 188.102C439.159 188.457 439.159 189.168 439.881 189.524ZM441.506 184.457C442.229 184.101 442.229 183.479 441.506 183.035L437.443 180.723C436.72 180.368 435.637 180.368 435.005 180.723L430.941 183.035C430.219 183.39 430.219 184.013 430.941 184.457L435.005 186.768C435.727 187.124 436.811 187.124 437.443 186.768L441.506 184.457ZM428.684 181.701L432.747 179.39C433.47 179.034 433.47 178.412 432.747 177.968L428.684 175.656C427.961 175.301 426.878 175.301 426.246 175.656L422.182 177.968C421.46 178.323 421.46 178.946 422.182 179.39L426.246 181.701C426.878 182.146 427.961 182.146 428.684 181.701ZM413.333 174.412L417.396 176.723C418.119 177.079 419.202 177.079 419.834 176.723L423.898 174.412C424.62 174.056 424.62 173.434 423.898 172.99L419.834 170.678C419.112 170.323 418.028 170.323 417.396 170.678L413.333 172.99C412.61 173.434 412.61 174.056 413.333 174.412ZM418.119 168.1L422.182 170.412C422.904 170.767 423.988 170.767 424.62 170.412L428.684 168.1C429.406 167.745 429.406 167.122 428.684 166.678L424.62 164.367C423.898 164.011 422.814 164.011 422.182 164.367L418.119 166.678C417.486 167.034 417.486 167.656 418.119 168.1ZM430.67 164.722L434.734 162.411C435.456 162.055 435.456 161.433 434.734 160.989L430.67 158.677C429.948 158.322 428.864 158.322 428.232 158.677L424.169 160.989C423.446 161.344 423.446 161.967 424.169 162.411L428.232 164.722C428.864 165.167 429.948 165.167 430.67 164.722ZM418.028 150.055L422.092 152.366C422.814 152.721 423.898 152.721 424.53 152.366L428.593 150.055C429.316 149.699 429.316 149.077 428.593 148.632L424.53 146.321C423.807 145.965 422.724 145.965 422.092 146.321L418.028 148.632C417.396 149.077 417.396 149.699 418.028 150.055ZM427.329 155.299L431.393 157.611C432.115 157.966 433.199 157.966 433.831 157.611L437.894 155.299C438.617 154.944 438.617 154.322 437.894 153.877L433.831 151.566C433.108 151.21 432.025 151.21 431.393 151.566L427.329 153.877C426.607 154.322 426.607 154.944 427.329 155.299ZM401.323 169.345L392.744 164.456C392.022 164.1 390.938 164.1 390.306 164.456L386.242 166.767C385.52 167.122 385.52 167.745 386.242 168.189L394.821 173.078C395.543 173.434 396.627 173.434 397.259 173.078L401.323 170.767C402.045 170.323 402.045 169.7 401.323 169.345ZM394.279 163.656L408.637 171.834C409.359 172.189 410.443 172.189 411.075 171.834L415.139 169.523C415.861 169.167 415.861 168.545 415.139 168.1L400.781 159.922C400.058 159.566 398.975 159.566 398.343 159.922L394.279 162.233C393.557 162.589 393.557 163.211 394.279 163.656ZM402.316 159.033L413.423 165.345C414.145 165.7 415.229 165.7 415.861 165.345L419.925 163.033C420.647 162.678 420.647 162.055 419.925 161.611L408.818 155.299C408.095 154.944 407.012 154.944 406.379 155.299L402.316 157.611C401.594 158.055 401.594 158.677 402.316 159.033ZM410.172 154.588L419.383 159.833C420.105 160.189 421.189 160.189 421.821 159.833L425.884 157.522C426.607 157.166 426.607 156.544 425.884 156.099L416.674 150.855C415.951 150.499 414.868 150.499 414.236 150.855L410.172 153.166C409.54 153.522 409.54 154.144 410.172 154.588Z" fill="url(#paint29_linear)"/>
<path d="M429.767 123.297L428.503 11.4674C428.503 10.4896 429.587 9.86732 430.399 10.4007L582.375 96.8066C584.271 97.8733 585.445 99.9179 585.535 102.051L586.8 211.303C586.8 212.459 585.626 213.081 584.632 212.548L432.025 127.031C430.67 126.231 429.767 124.897 429.767 123.297Z" fill="url(#paint30_linear)"/>
<path opacity="0.52" d="M539.482 125.875L543.636 127.475L537.405 131.653L536.683 135.298L513.024 130.676L515.643 125.697L539.482 125.875ZM469.59 84.539L465.436 81.2499L471.396 92.6285L472.028 97.0732L495.416 120.364L492.978 112.363L469.59 84.539ZM513.205 132.542L511.038 131.209L513.927 124.542L517.63 115.741L524.673 109.874L521.061 85.1613L518.262 82.4056L507.877 124.186L504.265 123.92L500.743 119.919L492.075 66.8489L489.185 66.2267L484.67 86.1392L491.352 100.185L494.693 113.163L497.312 123.119L495.145 121.786L474.195 131.564L476.362 135.209L495.325 139.209L497.944 133.342L500.743 133.076L503.272 137.787L503.814 138.32L504.355 138.409L507.064 136.809L509.773 140.276L512.121 149.077L530.904 167.478L533.161 166.5L513.205 132.542Z" fill="url(#paint31_linear)"/>
<path d="M746.541 190.413V46.7588H656.15V189.435L701.301 216.904L704.732 215.57L746.541 190.413Z" fill="url(#paint32_linear)"/>
<path d="M713.401 233.083L704.732 237.972C703.016 238.95 700.939 238.95 699.224 237.972L656.963 213.97C655.879 213.348 655.879 211.748 656.963 211.214L698.953 187.835C700.849 186.768 703.106 186.768 705.003 187.924L745.548 211.392C746.812 212.103 746.812 213.97 745.548 214.77L713.401 233.083Z" stroke="url(#paint33_linear)" stroke-width="2" stroke-miterlimit="10"/>
<path d="M746.541 190.413C746.541 190.413 746.18 198.947 746.09 200.547L704.732 224.104C703.016 225.082 700.939 225.082 699.224 224.104L656.511 199.658C656.241 196.813 656.15 189.435 656.15 189.435C657.956 188.368 744.645 189.346 746.541 190.413Z" fill="url(#paint34_linear)"/>
<path d="M705.003 165.433L745.548 188.902C746.812 189.613 746.812 191.48 745.548 192.28L704.732 215.57C703.016 216.548 700.939 216.548 699.224 215.57L656.963 191.569C655.879 190.946 655.879 189.346 656.963 188.813L698.953 165.433C700.849 164.367 703.106 164.367 705.003 165.433Z" fill="url(#paint35_linear)"/>
<path d="M735.073 141.876L731.371 137.343C730.829 136.72 730.468 135.565 730.558 135.031C730.558 134.943 730.739 133.698 730.739 131.831C730.739 129.964 730.558 128.453 730.558 128.364C730.468 127.653 729.474 129.787 729.926 129.787L735.163 126.586C736.157 125.964 736.789 125.786 737.15 124.631C737.421 123.475 737.331 122.053 736.698 120.453L733.357 111.83C732.725 110.319 731.822 108.896 730.648 107.918C729.474 106.941 728.3 106.407 727.217 106.496L723.515 106.852C722.973 106.941 722.16 106.318 721.709 105.607C721.709 105.518 720.715 104.096 719.27 102.407C717.916 100.718 716.742 99.4734 716.652 99.4734C716.11 98.9401 715.568 97.7844 715.568 97.1622V92.3618C715.568 89.5172 713.582 86.0503 711.053 84.7169L704.281 80.8944C701.752 79.4721 696.424 82.5834 694.528 84.5391L699.766 88.2727C699.766 88.8949 699.224 89.5172 698.682 89.4283C698.592 89.4283 697.418 89.2505 696.063 89.4283C694.618 89.5172 693.715 89.8728 693.625 89.8728C693.174 90.0506 692.271 89.6061 691.819 88.9838L688.117 84.4502C687.033 83.2057 685.859 82.3167 684.685 82.05C683.511 81.6944 682.608 82.2278 681.886 82.7612L676.287 86.0503C675.655 86.8504 677.822 89.7839 678.093 91.2951C678.364 92.8063 679.177 94.3175 680.17 95.5621L683.873 100.096C684.414 100.718 684.776 101.874 684.685 102.407C684.685 102.496 684.505 103.74 684.505 105.607C684.505 107.474 684.685 108.985 684.685 109.074C684.776 109.785 684.414 110.496 683.873 110.496L680.17 110.852C679.087 110.941 678.364 111.652 678.093 112.808C677.822 113.963 677.913 115.386 678.545 116.986L681.886 125.609C683.15 128.72 685.859 131.12 688.026 130.942L691.729 130.587C692.271 130.498 693.083 131.12 693.535 131.831C693.535 131.92 694.528 133.342 695.973 135.031C697.327 136.72 698.501 137.965 698.592 137.965C699.133 138.498 699.675 139.654 699.675 140.276V145.077C699.675 147.921 701.662 151.388 704.19 152.722L705.635 160.366C708.163 161.789 715.478 156.811 715.478 154.055V149.255C715.478 148.632 716.02 148.01 716.561 148.099C716.652 148.099 717.826 148.277 719.18 148.099C720.625 148.01 721.528 147.654 721.618 147.654C722.07 147.477 722.973 147.921 723.515 148.543L727.217 153.077C728.21 154.322 724.327 158.766 725.501 159.122C726.675 159.389 732.816 155.566 733.357 154.766L736.698 150.055C737.331 149.255 737.421 147.921 737.15 146.41C736.879 144.721 736.157 143.21 735.073 141.876ZM707.712 130.142C702.204 127.031 697.689 119.297 697.689 112.985C697.689 106.674 702.204 104.096 707.712 107.296C713.22 110.408 717.735 118.141 717.735 124.453C717.735 130.764 713.22 133.254 707.712 130.142Z" fill="url(#paint36_linear)"/>
<path d="M729.113 145.343L725.411 140.81C724.869 140.187 724.508 139.032 724.598 138.498C724.598 138.409 724.779 137.165 724.779 135.298C724.779 133.431 724.598 131.92 724.598 131.831C724.508 131.12 724.869 130.409 725.411 130.409L729.113 130.053C730.197 129.964 730.919 129.253 731.19 128.098C731.461 126.942 731.371 125.52 730.739 123.92L727.397 115.297C726.765 113.786 725.862 112.363 724.688 111.385C723.514 110.408 722.341 109.874 721.257 109.963L717.555 110.319C717.013 110.408 716.2 109.785 715.749 109.074C715.749 108.985 714.755 107.563 713.311 105.874C711.956 104.185 710.782 102.94 710.692 102.94C710.15 102.407 709.608 101.251 709.608 100.629V95.8287C709.608 92.9841 707.622 89.5172 705.093 88.1838L698.321 84.3613C695.792 82.939 693.806 84.0946 693.806 86.9393V91.7396C693.806 92.3618 693.264 92.9841 692.722 92.8952C692.632 92.8952 691.458 92.7174 690.103 92.8952C688.659 92.9841 687.755 93.3397 687.665 93.3397C687.214 93.5175 686.311 93.073 685.859 92.4507L682.157 87.9171C681.073 86.6726 679.899 85.7836 678.725 85.5169C677.552 85.1614 676.558 85.5169 676.016 86.317L672.675 91.0284C672.043 91.8285 671.953 93.1619 672.224 94.6731C672.495 96.1843 673.307 97.6955 674.301 98.9401L678.003 103.474C678.545 104.096 678.906 105.252 678.816 105.785C678.816 105.874 678.635 107.118 678.635 108.985C678.635 110.852 678.816 112.363 678.816 112.452C678.906 113.163 678.545 113.874 678.003 113.874L674.301 114.23C673.217 114.319 672.495 115.03 672.224 116.186C671.953 117.341 672.043 118.764 672.675 120.364L676.016 128.987C677.281 132.098 679.99 134.498 682.157 134.32L685.859 133.965C686.401 133.876 687.214 134.498 687.665 135.209C687.665 135.298 688.659 136.72 690.103 138.409C691.458 140.098 692.632 141.343 692.722 141.343C693.264 141.876 693.806 143.032 693.806 143.654V148.455C693.806 151.299 695.792 154.766 698.321 156.099L705.093 159.922C707.622 161.344 709.608 160.189 709.608 157.344V152.544C709.608 151.921 710.15 151.299 710.692 151.388C710.782 151.388 711.956 151.566 713.311 151.388C714.755 151.299 715.658 150.944 715.749 150.944C716.2 150.766 717.103 151.21 717.645 151.833L721.347 156.366C722.341 157.611 723.605 158.5 724.779 158.855C725.953 159.122 726.946 158.855 727.488 158.055L730.829 153.344C731.461 152.544 731.551 151.21 731.28 149.699C730.919 148.188 730.197 146.588 729.113 145.343ZM701.752 133.609C696.244 130.498 691.729 122.764 691.729 116.452C691.729 110.141 696.244 107.563 701.752 110.763C707.26 113.874 711.775 121.608 711.775 127.92C711.775 134.231 707.26 136.72 701.752 133.609Z" fill="url(#paint37_linear)"/>
<path d="M734.35 177.079L732.364 174.679C732.093 174.323 731.912 173.701 731.912 173.434C731.912 173.434 732.003 172.723 732.003 171.745C732.003 170.767 731.912 169.967 731.912 169.878C731.822 169.523 730.377 171.301 730.648 171.212L734.35 168.9C734.892 168.545 735.253 168.456 735.434 167.834C735.615 167.211 735.524 166.411 735.163 165.611L733.357 160.989C732.996 160.189 732.544 159.389 731.912 158.855C731.28 158.322 730.648 158.055 730.106 158.055L728.12 158.233C727.849 158.233 727.397 157.966 727.126 157.611C727.126 157.611 726.585 156.811 725.862 155.833C725.14 154.944 724.508 154.233 724.417 154.233C724.147 153.966 723.876 153.344 723.876 152.988V150.41C723.876 148.899 722.792 147.032 721.438 146.232L717.826 144.188C716.471 143.388 712.859 145.61 711.866 146.677L715.478 148.188C715.478 148.544 715.207 148.81 714.936 148.81C714.936 148.81 714.304 148.721 713.491 148.81C712.769 148.899 712.227 149.077 712.227 149.077C711.956 149.166 711.505 148.899 711.234 148.632L709.247 146.232C708.705 145.521 708.073 145.077 707.441 144.899C706.809 144.721 706.357 144.988 705.906 145.254L702.204 147.477C701.842 147.921 703.648 149.077 703.829 149.877C704.01 150.677 704.371 151.477 705.003 152.188L706.99 154.588C707.26 154.944 707.441 155.566 707.441 155.833C707.441 155.833 707.351 156.544 707.351 157.522C707.351 158.5 707.441 159.3 707.441 159.389C707.531 159.744 707.26 160.189 706.99 160.189L705.003 160.367C704.461 160.455 704.01 160.811 703.829 161.433C703.648 162.056 703.739 162.856 704.1 163.656L705.906 168.278C706.538 169.967 708.073 171.301 709.247 171.212L711.234 171.034C711.505 171.034 711.956 171.301 712.227 171.656C712.227 171.656 712.769 172.456 713.491 173.434C714.214 174.323 714.846 175.034 714.936 175.034C715.207 175.301 715.478 175.923 715.478 176.279V178.857C715.478 180.368 716.561 182.235 717.916 183.035L718.187 187.746C719.541 188.546 724.056 185.257 724.056 183.746V181.168C724.056 180.812 724.327 180.546 724.598 180.546C724.598 180.546 725.23 180.635 726.043 180.546C726.765 180.457 727.307 180.279 727.307 180.279C727.578 180.19 728.029 180.457 728.3 180.723L730.287 183.124C730.829 183.835 728.029 186.768 728.662 186.857C729.294 187.035 733.357 184.368 733.628 183.924L735.434 181.346C735.795 180.901 735.886 180.19 735.705 179.39C735.253 178.59 734.892 177.79 734.35 177.079ZM719.541 170.767C716.561 169.078 714.123 164.9 714.123 161.522C714.123 158.144 716.561 156.722 719.541 158.411C722.521 160.1 724.959 164.278 724.959 167.656C724.959 171.034 722.521 172.456 719.541 170.767Z" fill="url(#paint38_linear)"/>
<path d="M730.377 179.39L728.391 176.99C728.12 176.634 727.939 176.012 727.939 175.745C727.939 175.745 728.029 175.034 728.029 174.056C728.029 173.078 727.939 172.278 727.939 172.189C727.849 171.834 728.12 171.389 728.391 171.389L730.377 171.212C730.919 171.123 731.371 170.767 731.551 170.145C731.732 169.523 731.641 168.723 731.28 167.922L729.474 163.3C729.113 162.5 728.662 161.7 728.029 161.166C727.397 160.633 726.765 160.366 726.223 160.366L724.237 160.544C723.966 160.544 723.514 160.278 723.244 159.922C723.244 159.922 722.702 159.122 721.979 158.144C721.257 157.255 720.625 156.544 720.535 156.544C720.264 156.277 719.993 155.655 719.993 155.299V152.721C719.993 151.21 718.909 149.343 717.555 148.543L713.943 146.499C712.588 145.699 711.505 146.321 711.505 147.832V150.41C711.505 150.766 711.234 151.032 710.963 151.032C710.963 151.032 710.331 150.944 709.518 151.032C708.796 151.121 708.254 151.299 708.254 151.299C707.983 151.388 707.531 151.121 707.26 150.855L705.274 148.455C704.732 147.743 704.1 147.299 703.468 147.121C702.836 146.943 702.294 147.121 702.023 147.566L700.217 150.144C699.856 150.588 699.766 151.299 699.946 152.099C700.127 152.899 700.488 153.699 701.12 154.41L703.107 156.811C703.378 157.166 703.558 157.788 703.558 158.055C703.558 158.055 703.468 158.766 703.468 159.744C703.468 160.722 703.558 161.522 703.558 161.611C703.648 161.967 703.378 162.411 703.107 162.411L701.12 162.589C700.578 162.678 700.127 163.033 699.946 163.656C699.766 164.278 699.856 165.078 700.217 165.878L702.023 170.5C702.655 172.189 704.19 173.523 705.364 173.434L707.351 173.256C707.622 173.256 708.073 173.523 708.344 173.878C708.344 173.878 708.886 174.679 709.608 175.656C710.331 176.545 710.963 177.256 711.053 177.256C711.324 177.523 711.595 178.145 711.595 178.501V181.079C711.595 182.59 712.678 184.457 714.033 185.257L717.645 187.302C718.999 188.102 720.083 187.479 720.083 185.879V183.301C720.083 182.946 720.354 182.679 720.625 182.679C720.625 182.679 721.257 182.768 722.07 182.679C722.792 182.59 723.334 182.412 723.334 182.412C723.605 182.323 724.056 182.59 724.327 182.857L726.314 185.257C726.856 185.968 727.488 186.413 728.12 186.59C728.752 186.768 729.294 186.59 729.565 186.146L731.371 183.568C731.732 183.124 731.822 182.412 731.642 181.612C731.371 180.901 730.919 180.101 730.377 179.39ZM715.658 173.078C712.678 171.389 710.24 167.211 710.24 163.833C710.24 160.455 712.678 159.033 715.658 160.722C718.638 162.411 721.076 166.589 721.076 169.967C721.076 173.434 718.638 174.767 715.658 173.078Z" fill="url(#paint39_linear)"/>
<path opacity="0.7" d="M466.52 93.5175L411.436 62.2265L410.172 62.9377V110.319L465.255 141.165L466.52 140.543V93.5175Z" fill="url(#paint40_linear)"/>
<path d="M465.255 94.2287L410.172 62.9376V109.874L465.255 141.165V94.2287Z" fill="url(#paint41_linear)"/>
<path d="M437.082 85.8726L459.386 98.5845V102.763L437.082 90.0506V85.8726Z" fill="url(#paint42_linear)"/>
<path d="M437.082 93.6064L452.342 102.14L452.252 106.318L437.082 97.7845V93.6064Z" fill="url(#paint43_linear)"/>
<path d="M459.115 113.874L437.081 101.34L436.811 116.808L459.115 129.609V113.874Z" fill="url(#paint44_linear)"/>
<path d="M422.272 96.1844C427.961 99.3846 432.567 107.296 432.567 113.786C432.567 114.23 432.296 114.319 431.934 114.141L412.61 103.118C412.249 102.94 411.978 102.407 411.978 102.051C411.978 95.5621 416.583 92.9841 422.272 96.1844ZM416.493 84.8947C416.493 81.25 419.112 79.7388 422.272 81.6056C425.433 83.3835 428.052 87.8282 428.052 91.4729C428.052 95.1176 425.433 96.6288 422.272 94.762C419.021 92.8952 416.493 88.5394 416.493 84.8947Z" fill="url(#paint45_linear)"/>
<g opacity="0.7">
<path opacity="0.7" d="M508.509 33.3356L449.904 0L448.73 0.444475V65.16L507.335 98.4956L508.509 98.0511V33.3356Z" fill="url(#paint46_linear)"/>
</g>
<g opacity="0.9">
<path opacity="0.9" d="M507.335 33.6912L448.73 0.444458V65.16L507.335 98.4956V33.6912Z" fill="url(#paint47_linear)"/>
</g>
<path d="M458.046 19.7958C456.863 19.0882 456.681 20.8571 457.864 21.8301L461.413 24.7488L462.323 30.144L466.874 55.7936C466.965 56.3242 467.329 56.9434 467.784 57.1203L493.541 71.5371C494.815 72.2446 494.815 70.1219 493.541 69.4144L468.603 55.4398L467.693 50.4868L494.815 65.6996C495.27 65.9649 495.634 65.788 495.725 65.3458L499.001 50.6637C499.092 50.0445 498.637 49.1601 498.091 48.8063C486.715 42.4381 475.429 36.07 464.053 29.7018L463.143 24.4835C463.052 24.0412 462.779 23.5105 462.415 23.2452L458.228 19.8842C458.137 19.8842 458.137 19.7958 458.046 19.7958ZM473.882 62.7809C472.062 61.7195 470.515 62.604 470.515 64.7267C470.515 66.8494 472.062 69.4144 473.882 70.4757C475.702 71.5371 477.249 70.6526 477.249 68.5299C477.249 66.4072 475.702 63.7538 473.882 62.7809ZM487.534 70.3873C485.714 69.3259 484.166 70.2104 484.166 72.3331C484.166 74.4558 485.714 77.0208 487.534 78.0821C489.354 79.1435 490.901 78.259 490.901 76.1363C490.901 74.0136 489.445 71.4486 487.534 70.3873Z" fill="url(#paint48_linear)"/>
<path opacity="0.7" d="M545.261 49.2478L543.817 49.959V106.141L593.301 134.231L594.746 133.52V77.3386L545.261 49.2478Z" fill="url(#paint49_linear)"/>
<path opacity="0.9" d="M543.817 49.959V106.141L593.301 134.231V78.0498L543.817 49.959Z" fill="url(#paint50_linear)"/>
<path d="M568.559 76.8941L562.419 80.9833L560.432 78.0498L564.857 75.1162L559.71 67.5602L561.425 66.4045L568.559 76.8941ZM554.292 64.9822L549.867 67.9158L555.014 75.4718L553.298 76.6274L546.164 66.1379L552.305 62.0487L554.292 64.9822Z" fill="url(#paint51_linear)"/>
<path d="M589.69 119.653L583.549 123.742L581.562 120.808L585.987 117.875L580.84 110.319L582.556 109.163L589.69 119.653ZM575.512 107.741L571.088 110.674L576.235 118.23L574.519 119.386L567.385 108.896L573.526 104.807L575.512 107.741Z" fill="url(#paint52_linear)"/>
<path d="M559.8 85.9613C560.342 86.7614 560.522 88.1837 560.071 89.1616C559.619 90.0505 558.806 90.1394 558.174 89.3394C557.542 88.5393 557.452 87.117 557.903 86.1391C558.445 85.1613 559.258 85.1613 559.8 85.9613Z" fill="url(#paint53_linear)"/>
<path d="M565.489 88.9838C566.031 89.7839 566.211 91.2062 565.76 92.1841C565.308 93.073 564.496 93.1619 563.863 92.3619C563.322 91.5618 563.141 90.1395 563.593 89.1616C564.044 88.1838 564.857 88.1838 565.489 88.9838Z" fill="url(#paint54_linear)"/>
<path d="M570.997 92.0952C571.539 92.8952 571.72 94.3175 571.268 95.2953C570.817 96.1842 570.004 96.2731 569.372 95.4731C568.83 94.6731 568.649 93.2508 569.101 92.273C569.552 91.2951 570.455 91.2062 570.997 92.0952Z" fill="url(#paint55_linear)"/>
<path d="M576.506 95.2065C577.047 96.0065 577.228 97.4289 576.776 98.4067C576.325 99.2956 575.512 99.3845 574.88 98.5845C574.338 97.7844 574.158 96.3621 574.609 95.3843C575.151 94.4953 575.964 94.4065 576.506 95.2065Z" fill="url(#paint56_linear)"/>
<path opacity="0.7" d="M503.904 116.364L502.279 116.808V176.368L557.271 207.748L558.987 207.303V147.743L503.904 116.364Z" fill="url(#paint57_linear)"/>
<path opacity="0.9" d="M502.279 116.808V176.368L557.271 207.747V148.188L502.279 116.808Z" fill="url(#paint58_linear)"/>
<path d="M510.677 175.479V132.009L516.907 135.654V179.034L510.677 175.479Z" fill="url(#paint59_linear)"/>
<path d="M520.79 181.168V156.544L527.111 160.1V184.724L520.79 181.168Z" fill="url(#paint60_linear)"/>
<path d="M530.904 186.946V153.699L537.225 157.344V190.502L530.904 186.946Z" fill="url(#paint61_linear)"/>
<path d="M541.198 192.369V151.21L547.519 154.855V195.924L541.198 192.369Z" fill="url(#paint62_linear)"/>
<defs>
<linearGradient id="paint0_linear" x1="216.8" y1="46.7452" x2="216.575" y2="216.99" gradientUnits="userSpaceOnUse">
<stop stop-color="#F6E3E6" stop-opacity="0"/>
<stop offset="0.0001" stop-color="#F6E3E6" stop-opacity="0"/>
<stop offset="0.427083" stop-color="#F6BCBB" stop-opacity="0.416608"/>
<stop offset="1" stop-color="#FFEFB6"/>
</linearGradient>
<linearGradient id="paint1_linear" x1="171.333" y1="212.965" x2="261.666" y2="212.965" gradientUnits="userSpaceOnUse">
<stop stop-color="#98205E"/>
<stop offset="1" stop-color="#E34A63"/>
</linearGradient>
<linearGradient id="paint2_linear" x1="171.356" y1="206.984" x2="261.835" y2="206.984" gradientUnits="userSpaceOnUse">
<stop stop-color="#D41131"/>
<stop offset="0.646875" stop-color="#EB8273"/>
<stop offset="1" stop-color="#FFF9E3"/>
</linearGradient>
<linearGradient id="paint3_linear" x1="171.356" y1="190.525" x2="261.79" y2="190.525" gradientUnits="userSpaceOnUse">
<stop stop-color="#FE5D7B"/>
<stop offset="0.480208" stop-color="#EB8273"/>
<stop offset="1" stop-color="#FBEBB2"/>
</linearGradient>
<linearGradient id="paint4_linear" x1="178.088" y1="129.525" x2="253.758" y2="129.525" gradientUnits="userSpaceOnUse">
<stop stop-color="#FFB3BE"/>
<stop offset="1" stop-color="#E3B0DE"/>
</linearGradient>
<linearGradient id="paint5_linear" x1="184.896" y1="129.945" x2="253.859" y2="129.945" gradientUnits="userSpaceOnUse">
<stop stop-color="#D8D5FF"/>
<stop offset="1" stop-color="#F9D4D9"/>
</linearGradient>
<linearGradient id="paint6_linear" x1="338.93" y1="157.573" x2="428.45" y2="157.573" gradientUnits="userSpaceOnUse">
<stop stop-color="#98205E"/>
<stop offset="1" stop-color="#E34A63"/>
</linearGradient>
<linearGradient id="paint7_linear" x1="336.032" y1="139.506" x2="338.925" y2="139.506" gradientUnits="userSpaceOnUse">
<stop stop-color="#98205E"/>
<stop offset="1" stop-color="#E34A63"/>
</linearGradient>
<linearGradient id="paint8_linear" x1="314.698" y1="96.8373" x2="353.655" y2="96.8373" gradientUnits="userSpaceOnUse">
<stop stop-color="#D41131"/>
<stop offset="0.646875" stop-color="#EB8273"/>
<stop offset="1" stop-color="#FFF9E3"/>
</linearGradient>
<linearGradient id="paint9_linear" x1="318.312" y1="97.7967" x2="353.654" y2="97.7967" gradientUnits="userSpaceOnUse">
<stop stop-color="#FE5D7B"/>
<stop offset="0.480208" stop-color="#EB8273"/>
<stop offset="1" stop-color="#FBEBB2"/>
</linearGradient>
<linearGradient id="paint10_linear" x1="320.631" y1="94.5861" x2="351.456" y2="94.5861" gradientUnits="userSpaceOnUse">
<stop stop-color="#FFD5D9"/>
<stop offset="1" stop-color="#FFBFF9"/>
</linearGradient>
<linearGradient id="paint11_linear" x1="332.632" y1="61.3819" x2="339.455" y2="61.3819" gradientUnits="userSpaceOnUse">
<stop offset="0.0072817" stop-color="#490038"/>
<stop offset="1" stop-color="#88004F"/>
</linearGradient>
<linearGradient id="paint12_linear" x1="333.328" y1="132.482" x2="340.056" y2="132.482" gradientUnits="userSpaceOnUse">
<stop stop-color="#88004F"/>
<stop offset="0.9927" stop-color="#490038"/>
</linearGradient>
<linearGradient id="paint13_linear" x1="299.563" y1="77.3453" x2="325.624" y2="99.7299" gradientUnits="userSpaceOnUse">
<stop stop-color="#883754"/>
<stop offset="1" stop-color="#59222C"/>
</linearGradient>
<linearGradient id="paint14_linear" x1="299.563" y1="116.213" x2="325.484" y2="138.618" gradientUnits="userSpaceOnUse">
<stop stop-color="#883754"/>
<stop offset="1" stop-color="#59222C"/>
</linearGradient>
<linearGradient id="paint15_linear" x1="304.567" y1="84.8328" x2="326.512" y2="102.279" gradientUnits="userSpaceOnUse">
<stop stop-color="#883754"/>
<stop offset="1" stop-color="#59222C"/>
</linearGradient>
<linearGradient id="paint16_linear" x1="304.567" y1="108.47" x2="335.269" y2="120.998" gradientUnits="userSpaceOnUse">
<stop stop-color="#883754"/>
<stop offset="1" stop-color="#59222C"/>
</linearGradient>
<linearGradient id="paint17_linear" x1="296.145" y1="90.6712" x2="325.279" y2="116.345" gradientUnits="userSpaceOnUse">
<stop stop-color="#883754"/>
<stop offset="1" stop-color="#59222C"/>
</linearGradient>
<linearGradient id="paint18_linear" x1="289.677" y1="122.669" x2="324.116" y2="154.578" gradientUnits="userSpaceOnUse">
<stop stop-color="#883754"/>
<stop offset="1" stop-color="#59222C"/>
</linearGradient>
<linearGradient id="paint19_linear" x1="327.481" y1="96.9625" x2="359.878" y2="96.9625" gradientUnits="userSpaceOnUse">
<stop stop-color="#FFB3BE"/>
<stop offset="1" stop-color="#E3B0DE"/>
</linearGradient>
<linearGradient id="paint20_linear" x1="329.093" y1="114.956" x2="359.873" y2="114.956" gradientUnits="userSpaceOnUse">
<stop stop-color="#D8D5FF"/>
<stop offset="1" stop-color="#F9D4D9"/>
</linearGradient>
<linearGradient id="paint21_linear" x1="326.131" y1="216.274" x2="604.103" y2="216.274" gradientUnits="userSpaceOnUse">
<stop stop-color="#98205E"/>
<stop offset="1" stop-color="#E34A63"/>
</linearGradient>
<linearGradient id="paint22_linear" x1="425.316" y1="113.107" x2="596.511" y2="113.107" gradientUnits="userSpaceOnUse">
<stop stop-color="#D41131"/>
<stop offset="0.646875" stop-color="#EB8273"/>
<stop offset="1" stop-color="#FFF9E3"/>
</linearGradient>
<linearGradient id="paint23_linear" x1="425.228" y1="113.309" x2="591.905" y2="113.309" gradientUnits="userSpaceOnUse">
<stop stop-color="#FE5D7B"/>
<stop offset="0.480208" stop-color="#EB8273"/>
<stop offset="1" stop-color="#FBEBB2"/>
</linearGradient>
<linearGradient id="paint24_linear" x1="340.882" y1="209.572" x2="592.019" y2="209.572" gradientUnits="userSpaceOnUse">
<stop stop-color="#D41131"/>
<stop offset="0.646875" stop-color="#EB8273"/>
<stop offset="1" stop-color="#FFF9E3"/>
</linearGradient>
<linearGradient id="paint25_linear" x1="341.519" y1="202.21" x2="592.019" y2="202.21" gradientUnits="userSpaceOnUse">
<stop stop-color="#FE5D7B"/>
<stop offset="0.480208" stop-color="#EB8273"/>
<stop offset="1" stop-color="#FBEBB2"/>
</linearGradient>
<linearGradient id="paint26_linear" x1="561.732" y1="240.071" x2="568.586" y2="240.071" gradientUnits="userSpaceOnUse">
<stop stop-color="#FFF8BD"/>
<stop offset="1" stop-color="#FFF9E9"/>
</linearGradient>
<linearGradient id="paint27_linear" x1="553.177" y1="245.797" x2="557.504" y2="245.797" gradientUnits="userSpaceOnUse">
<stop stop-color="#FFF8BD"/>
<stop offset="1" stop-color="#FFF9E9"/>
</linearGradient>
<linearGradient id="paint28_linear" x1="401.764" y1="188.607" x2="474.461" y2="230.971" gradientUnits="userSpaceOnUse">
<stop stop-color="#FFD5D9"/>
<stop offset="1" stop-color="#F9D4D9"/>
</linearGradient>
<linearGradient id="paint29_linear" x1="385.876" y1="141.268" x2="470.316" y2="192.53" gradientUnits="userSpaceOnUse">
<stop stop-color="#F8BC9A"/>
<stop offset="1" stop-color="#FFF2F9"/>
</linearGradient>
<linearGradient id="paint30_linear" x1="428.513" y1="111.477" x2="586.786" y2="111.477" gradientUnits="userSpaceOnUse">
<stop stop-color="#98205E"/>
<stop offset="1" stop-color="#E34A63"/>
</linearGradient>
<linearGradient id="paint31_linear" x1="531.052" y1="167.782" x2="478.733" y2="71.8031" gradientUnits="userSpaceOnUse">
<stop stop-color="#EC2020"/>
<stop offset="1" stop-color="#FFBFF9"/>
</linearGradient>
<linearGradient id="paint32_linear" x1="701.578" y1="46.6563" x2="701.352" y2="216.901" gradientUnits="userSpaceOnUse">
<stop stop-color="#F6E3E6" stop-opacity="0"/>
<stop offset="0.0001" stop-color="#F6E3E6" stop-opacity="0"/>
<stop offset="0.427083" stop-color="#F6BCBB" stop-opacity="0.416608"/>
<stop offset="1" stop-color="#FFEFB6"/>
</linearGradient>
<linearGradient id="paint33_linear" x1="656.156" y1="212.877" x2="746.488" y2="212.877" gradientUnits="userSpaceOnUse">
<stop stop-color="#98205E"/>
<stop offset="1" stop-color="#E34A63"/>
</linearGradient>
<linearGradient id="paint34_linear" x1="656.088" y1="206.895" x2="746.567" y2="206.895" gradientUnits="userSpaceOnUse">
<stop stop-color="#D41131"/>
<stop offset="0.646875" stop-color="#EB8273"/>
<stop offset="1" stop-color="#FFF9E3"/>
</linearGradient>
<linearGradient id="paint35_linear" x1="656.088" y1="190.453" x2="746.522" y2="190.453" gradientUnits="userSpaceOnUse">
<stop stop-color="#FE5D7B"/>
<stop offset="0.480208" stop-color="#EB8273"/>
<stop offset="1" stop-color="#FBEBB2"/>
</linearGradient>
<linearGradient id="paint36_linear" x1="676.228" y1="104.204" x2="737.352" y2="104.204" gradientUnits="userSpaceOnUse">
<stop offset="2.22215e-07" stop-color="#E3B0DE"/>
<stop offset="1" stop-color="#FFB3BE"/>
</linearGradient>
<linearGradient id="paint37_linear" x1="672.1" y1="139.768" x2="731.421" y2="139.768" gradientUnits="userSpaceOnUse">
<stop stop-color="#D8D5FF"/>
<stop offset="1" stop-color="#F9D4D9"/>
</linearGradient>
<linearGradient id="paint38_linear" x1="701.985" y1="156.875" x2="735.523" y2="156.875" gradientUnits="userSpaceOnUse">
<stop offset="2.22215e-07" stop-color="#E3B0DE"/>
<stop offset="1" stop-color="#FFB3BE"/>
</linearGradient>
<linearGradient id="paint39_linear" x1="699.867" y1="176.427" x2="731.73" y2="176.427" gradientUnits="userSpaceOnUse">
<stop stop-color="#D8D5FF"/>
<stop offset="1" stop-color="#F9D4D9"/>
</linearGradient>
<linearGradient id="paint40_linear" x1="462.364" y1="142.858" x2="415.279" y2="60.0175" gradientUnits="userSpaceOnUse">
<stop stop-color="#FFB3BE"/>
<stop offset="1" stop-color="#E3B0DE"/>
</linearGradient>
<linearGradient id="paint41_linear" x1="410.191" y1="120.01" x2="465.252" y2="120.01" gradientUnits="userSpaceOnUse">
<stop stop-color="#D8D5FF"/>
<stop offset="1" stop-color="#F9D4D9"/>
</linearGradient>
<linearGradient id="paint42_linear" x1="406.936" y1="98.9222" x2="438.465" y2="127.301" gradientUnits="userSpaceOnUse">
<stop stop-color="#883754"/>
<stop offset="1" stop-color="#59222C"/>
</linearGradient>
<linearGradient id="paint43_linear" x1="416.456" y1="103.428" x2="439.845" y2="122.567" gradientUnits="userSpaceOnUse">
<stop stop-color="#883754"/>
<stop offset="1" stop-color="#59222C"/>
</linearGradient>
<linearGradient id="paint44_linear" x1="447.963" y1="101.34" x2="447.963" y2="129.609" gradientUnits="userSpaceOnUse">
<stop stop-color="#EBA0AE"/>
<stop offset="1" stop-color="#FFB4B4"/>
</linearGradient>
<linearGradient id="paint45_linear" x1="384.151" y1="106.627" x2="428.938" y2="125.432" gradientUnits="userSpaceOnUse">
<stop stop-color="#EB4AAB"/>
<stop offset="1" stop-color="#A02D37"/>
</linearGradient>
<linearGradient id="paint46_linear" x1="507.586" y1="98.5914" x2="451.043" y2="-0.889626" gradientUnits="userSpaceOnUse">
<stop stop-color="#FFB3BE"/>
<stop offset="1" stop-color="#E3B0DE"/>
</linearGradient>
<linearGradient id="paint47_linear" x1="448.751" y1="71.98" x2="507.332" y2="71.98" gradientUnits="userSpaceOnUse">
<stop stop-color="#D8D5FF"/>
<stop offset="1" stop-color="#F9D4D9"/>
</linearGradient>
<linearGradient id="paint48_linear" x1="400.364" y1="65.1396" x2="487.233" y2="107.313" gradientUnits="userSpaceOnUse">
<stop stop-color="#883754"/>
<stop offset="1" stop-color="#59222C"/>
</linearGradient>
<linearGradient id="paint49_linear" x1="543.843" y1="91.7465" x2="594.748" y2="91.7465" gradientUnits="userSpaceOnUse">
<stop stop-color="#FFB3BE"/>
<stop offset="1" stop-color="#E3B0DE"/>
</linearGradient>
<linearGradient id="paint50_linear" x1="543.834" y1="111.442" x2="593.299" y2="111.442" gradientUnits="userSpaceOnUse">
<stop stop-color="#D8D5FF"/>
<stop offset="1" stop-color="#F9D4D9"/>
</linearGradient>
<linearGradient id="paint51_linear" x1="515.897" y1="76.678" x2="550.628" y2="104.677" gradientUnits="userSpaceOnUse">
<stop stop-color="#EB4AAB"/>
<stop offset="1" stop-color="#A02D37"/>
</linearGradient>
<linearGradient id="paint52_linear" x1="537.24" y1="119.437" x2="571.941" y2="147.299" gradientUnits="userSpaceOnUse">
<stop stop-color="#EB4AAB"/>
<stop offset="1" stop-color="#A02D37"/>
</linearGradient>
<linearGradient id="paint53_linear" x1="553.965" y1="88.8632" x2="559.894" y2="91.2897" gradientUnits="userSpaceOnUse">
<stop stop-color="#883754"/>
<stop offset="1" stop-color="#59222C"/>
</linearGradient>
<linearGradient id="paint54_linear" x1="559.716" y1="91.8857" x2="565.604" y2="94.2716" gradientUnits="userSpaceOnUse">
<stop stop-color="#883754"/>
<stop offset="1" stop-color="#59222C"/>
</linearGradient>
<linearGradient id="paint55_linear" x1="565.224" y1="94.989" x2="571.125" y2="97.3621" gradientUnits="userSpaceOnUse">
<stop stop-color="#883754"/>
<stop offset="1" stop-color="#59222C"/>
</linearGradient>
<linearGradient id="paint56_linear" x1="570.733" y1="98.1154" x2="576.609" y2="100.513" gradientUnits="userSpaceOnUse">
<stop stop-color="#883754"/>
<stop offset="1" stop-color="#59222C"/>
</linearGradient>
<linearGradient id="paint57_linear" x1="502.256" y1="162.07" x2="558.958" y2="162.07" gradientUnits="userSpaceOnUse">
<stop stop-color="#FFB3BE"/>
<stop offset="1" stop-color="#E3B0DE"/>
</linearGradient>
<linearGradient id="paint58_linear" x1="502.298" y1="183.155" x2="557.269" y2="183.155" gradientUnits="userSpaceOnUse">
<stop stop-color="#D8D5FF"/>
<stop offset="1" stop-color="#F9D4D9"/>
</linearGradient>
<linearGradient id="paint59_linear" x1="502.255" y1="168.342" x2="518.07" y2="169.77" gradientUnits="userSpaceOnUse">
<stop stop-color="#EB4AAB"/>
<stop offset="1" stop-color="#A02D37"/>
</linearGradient>
<linearGradient id="paint60_linear" x1="512.247" y1="178.316" x2="528.052" y2="180.733" gradientUnits="userSpaceOnUse">
<stop stop-color="#883754"/>
<stop offset="1" stop-color="#59222C"/>
</linearGradient>
<linearGradient id="paint61_linear" x1="534.064" y1="153.699" x2="534.064" y2="190.502" gradientUnits="userSpaceOnUse">
<stop stop-color="#EBA0AE"/>
<stop offset="1" stop-color="#FFB4B4"/>
</linearGradient>
<linearGradient id="paint62_linear" x1="532.655" y1="185.758" x2="548.68" y2="187.302" gradientUnits="userSpaceOnUse">
<stop stop-color="#883754"/>
<stop offset="1" stop-color="#59222C"/>
</linearGradient>
</defs>
</svg>
