<svg width="121" height="134" viewBox="0 0 121 134" fill="none" xmlns="http://www.w3.org/2000/svg">
<path d="M38.7133 27.9115L38.7133 27.9126L38.6399 104.152C38.6598 105.26 39.2223 106.225 40.1555 106.765L82.0617 131.026C83.2276 131.701 84.6816 130.871 84.6957 129.493C84.6958 129.492 84.6958 129.491 84.6958 129.489L84.7579 53.0781C84.7379 51.9696 84.1755 51.0046 83.2422 50.4643L41.5081 26.3031C40.2773 25.5905 38.7132 26.4949 38.7133 27.9115Z" stroke="url(#paint0_linear)" stroke-width="2"/>
<path d="M53.4646 84.2821C53.4646 81.3267 51.68 77.949 49.528 76.6824C47.5335 75.5214 46.5887 76.6824 45.9589 75.2575C45.644 74.5187 45.5915 73.8326 45.5915 71.8271V61.4304L38.978 57.5778C38.0333 56.9973 37.8758 57.1556 37.7708 57.1556C37.5609 57.2611 36.3012 57.7889 35.3039 58.1583C35.3564 58.7389 37.9808 59.4249 37.9808 60.586C37.9808 64.6497 34.779 66.0746 31.9447 64.4386C29.1104 62.8025 25.9087 57.8417 25.9087 53.6197C25.9087 51.667 26.2236 51.0337 26.0661 50.4531C25.9611 50.1365 25.8562 49.9254 24.8589 49.3976L18.2455 45.545L15.6736 46.6005L18.2455 77.1046V82.1183L21.8671 84.2293L42.9671 99.0064L45.539 97.9509V87.5541C45.539 85.5487 45.5915 84.9154 45.9064 84.546C46.5362 83.9126 47.2186 87.5014 49.1606 88.6624C51.8375 87.6597 53.4646 87.2375 53.4646 84.2821Z" fill="url(#paint1_linear)"/>
<path d="M50.8928 85.3376C50.8928 82.3822 49.1082 79.0046 46.9562 77.7379C44.9617 76.5769 44.0169 77.7379 43.3871 76.313C43.0722 75.5742 43.0197 74.8881 43.0197 72.8826V62.4859L36.3537 58.5805C35.409 58 35.2515 58.0528 35.1465 58.2639C34.9891 58.6861 35.304 59.7416 35.304 61.6415C35.304 65.7052 32.1022 67.1301 29.2679 65.4941C26.4336 63.858 23.2318 58.8972 23.2318 54.6752C23.2318 52.7225 23.5467 52.0892 23.3893 51.5086C23.2843 51.192 23.1793 50.9809 22.1821 50.4531L15.6736 46.6005V78.1601V83.1738L19.2952 85.2848L42.9672 99.0064V88.6096C42.9672 86.6042 43.0197 85.9709 43.3346 85.6015C43.9644 84.9682 44.9092 87.1847 46.9038 88.3458C49.1082 89.6124 50.8928 88.293 50.8928 85.3376Z" fill="url(#paint2_linear)"/>
<path d="M33.9915 92.9372L34.2014 79.9017L31.9973 78.5823L31.7349 91.6178L33.9915 92.9372Z" fill="url(#paint3_linear)"/>
<path d="M23.232 86.657L23.4419 73.6215L21.2375 72.3021L20.9751 85.3376L23.232 86.657Z" fill="url(#paint4_linear)"/>
<path d="M30.3701 90.9318L30.7375 69.9272L28.4805 68.5551L28.113 89.5596L30.3701 90.9318Z" fill="url(#paint5_linear)"/>
<path d="M26.801 88.8207L27.116 70.2439L24.9114 68.8717L24.5964 87.4486L26.801 88.8207Z" fill="url(#paint6_linear)"/>
<path d="M14.624 43.8035L20.975 42.3258C22.1822 42.0619 22.6021 42.0091 23.0745 42.3785C23.9668 43.1702 23.3894 44.7006 24.2292 47.4977C24.859 49.5032 25.1215 52.6169 26.3287 53.4086C27.9033 52.9864 28.5332 52.7753 29.163 52.5114C30.8951 51.8781 31.5774 49.0282 30.6327 45.9672C29.7929 43.1702 28.3232 42.0619 28.6906 41.0064C28.8481 40.4786 29.268 40.2675 30.4752 40.0036L34.4642 39.5287L36.7737 38.5259L33.8869 29.1847C33.467 27.8126 33.3095 27.6542 33.1521 27.5487C32.7846 27.3904 32.4172 27.9709 31.21 28.2875C28.7431 28.8681 25.3839 24.8044 24.1242 20.8462C23.022 16.8881 23.5469 11.8744 26.1187 11.2939C26.2237 11.2939 25.6988 11.0828 25.5414 11.2939C25.3839 11.505 25.5939 12.1911 25.6988 12.1911C26.8536 11.6633 28.0083 11.3467 28.1657 11.0828C28.2707 10.9245 28.3232 10.7134 27.9033 9.34122L25.0165 0L5.91108 4.53867L2.76184 5.27752L0.452393 6.28025L4.33646 10.2384L14.624 43.8035Z" fill="url(#paint7_linear)"/>
<path d="M12.3146 44.8062L18.6656 43.3285C19.8728 43.0646 20.2927 43.0118 20.7651 43.3813C21.6574 44.1729 21.08 45.7034 21.9198 48.5005C22.8646 51.5614 25.0691 53.7252 26.8537 53.303C28.6382 52.8808 29.3206 50.0309 28.3758 46.97C27.536 44.1729 26.0663 43.0646 26.4338 42.0091C26.5912 41.4814 27.0111 41.2703 28.2183 41.0064L34.5168 39.5287L31.63 30.1874C31.2101 28.8153 31.0527 28.657 30.8952 28.5514C30.5278 28.3931 30.1604 28.9736 28.9532 29.2903C26.4862 29.8708 23.127 25.8071 21.8673 21.849C20.6601 17.8908 21.1325 12.9299 23.7044 12.2966C24.8591 12.0328 25.5415 12.4022 25.8039 12.0855C25.9089 11.9272 25.9614 11.7161 25.5415 10.344L22.7071 1.00273L3.60165 5.5414L0.452393 6.28026L1.97453 11.2411L12.3146 44.8062Z" fill="url(#paint8_linear)"/>
<path d="M75.4565 109.825V78.1074L67.6884 73.6215C66.1663 72.7771 65.6939 72.4076 65.274 71.7216C64.4867 70.4022 65.7464 69.8744 65.7464 67.1829C65.7464 64.2275 63.9618 60.8499 61.8098 59.5833C59.6054 58.3167 58.5031 59.2138 55.8263 60.7443C55.8263 63.3831 59.133 67.2357 58.3457 67.6579C57.9258 67.869 57.4534 67.6579 55.9313 66.7607L48.1632 62.2748L44.9089 63.5414L48.1632 71.141C48.1632 72.4604 48.2681 72.6715 48.4256 72.8826C48.793 73.3048 49.4228 73.252 50.8925 74.0964C53.9368 75.838 56.3512 81.5905 56.3512 85.3376C56.3512 89.0846 54.0417 92.0928 50.8925 90.2457C49.4753 89.4013 48.8455 88.6096 48.4256 88.6096C48.2156 88.6096 46.2736 89.4013 44.9614 90.0346L48.1107 98.9008L72.1499 116.053L75.4041 114.786L75.4565 109.825Z" fill="url(#paint9_linear)"/>
<path d="M72.2029 111.092V79.374L64.4346 74.8881C62.9124 74.0437 62.4401 73.6743 62.0201 72.9882C61.2328 71.6688 62.4925 71.141 62.4925 68.4495C62.4925 65.4941 60.7079 62.1165 58.5559 60.8499C56.3514 59.5833 54.6193 60.9026 54.6193 63.8581C54.6193 66.4968 55.879 68.5023 55.0917 68.9245C54.6718 69.1356 54.1994 68.9245 52.6772 68.0273L44.9089 63.5414V72.4076C44.9089 73.727 45.0139 73.9381 45.1714 74.1492C45.5388 74.5714 46.1687 74.5187 47.6383 75.3631C50.6827 77.1046 53.0971 82.8572 53.0971 86.6042C53.0971 90.3512 50.7876 93.3594 47.6383 91.5123C46.2211 90.6679 45.5913 89.8763 45.1714 89.8763C44.9614 89.8763 44.9089 89.9818 44.9089 91.3012V100.167L68.6337 113.942L72.2029 116V111.092Z" fill="url(#paint10_linear)"/>
<path d="M69.4208 97.8453L68.581 96.5787C68.4761 96.4204 68.4236 96.1037 68.4236 95.9454C68.4236 95.9454 68.5285 95.6287 68.581 95.101C68.6335 94.626 68.6335 94.2038 68.6335 94.2038C68.6335 93.9927 68.3186 94.5732 68.4236 94.5732L69.8407 93.8871C70.1032 93.7816 70.2606 93.7288 70.4181 93.4122C70.5231 93.0955 70.5231 92.7261 70.4181 92.3039L69.7882 89.9818C69.6833 89.5596 69.4733 89.1902 69.2109 88.8735C68.9484 88.5569 68.6335 88.3985 68.3711 88.3985H67.4263C67.3213 88.3985 67.0589 88.2402 67.0064 88.0291C67.0064 88.0291 66.7964 87.6069 66.4815 87.1319C66.1666 86.657 65.9042 86.2875 65.9042 86.2875C65.7992 86.1292 65.6942 85.8126 65.6942 85.6542L65.7992 84.3876C65.8517 83.6488 65.4318 82.6988 64.8544 82.2766L63.2273 81.0628C62.6499 80.6406 61.1803 81.2739 60.6554 81.7489L61.9151 82.8571C61.9151 83.0155 61.7576 83.1738 61.6002 83.121C61.6002 83.121 61.2852 83.0682 60.9178 83.0155C60.5504 83.0155 60.288 83.0682 60.288 83.0682C60.183 83.121 59.9731 82.9627 59.8156 82.8044L58.9758 81.5378C58.7658 81.1683 58.4509 80.9045 58.1885 80.7989C57.8735 80.6934 57.6636 80.7989 57.4536 80.9045L55.9315 81.5905C55.774 81.8016 56.2464 82.5933 56.2464 83.0155C56.2989 83.4377 56.4564 83.8599 56.6663 84.1765L57.5061 85.4431C57.6111 85.6014 57.6636 85.9181 57.6636 86.0764C57.6636 86.0764 57.5586 86.3931 57.5061 86.9208C57.4536 87.3958 57.4536 87.818 57.4536 87.818C57.4536 88.0291 57.3487 88.1874 57.1912 88.1874H56.2464C55.984 88.1874 55.774 88.3458 55.6691 88.6096C55.5641 88.9263 55.5641 89.2957 55.6691 89.7179L56.2989 92.04C56.5089 92.8844 57.1912 93.6233 57.7161 93.6233H58.6609C58.7658 93.6233 59.0283 93.7816 59.0808 93.9927C59.0808 93.9927 59.2907 94.4149 59.6056 94.8899C59.9206 95.3649 60.183 95.7343 60.183 95.7343C60.288 95.8926 60.393 96.2093 60.393 96.3676L60.288 97.6342C60.2355 98.373 60.6554 99.323 61.2328 99.7452L61.3902 101.803C61.9676 102.226 64.0146 101.17 64.0671 100.431L64.1721 99.1647C64.1721 99.0063 64.3295 98.848 64.487 98.9008C64.487 98.9008 64.8019 98.9536 65.1693 99.0063C65.5367 99.0063 65.7992 98.9536 65.7992 98.9536C65.9042 98.9008 66.1141 99.0591 66.2716 99.2174L67.1114 100.484C67.3213 100.853 66.2191 101.909 66.4815 102.015C66.7964 102.12 68.4236 101.276 68.6335 101.065L69.6308 99.9035C69.7882 99.6924 69.8932 99.3758 69.8407 98.9536C69.7882 98.5841 69.6308 98.1619 69.4208 97.8453ZM62.7024 93.9927C61.3902 93.0428 60.4454 90.879 60.6029 89.2429C60.7604 87.6069 62.0201 87.0264 63.3323 88.0291C64.6445 88.9791 65.5892 91.1428 65.4318 92.7789C65.2743 94.4149 64.0146 94.9954 62.7024 93.9927Z" fill="url(#paint11_linear)"/>
<path d="M67.7932 98.5842L66.9534 97.3176C66.8484 97.1592 66.7959 96.8426 66.7959 96.6843C66.7959 96.6843 66.9009 96.3676 66.9534 95.8399C67.0059 95.3649 67.0059 94.9427 67.0059 94.9427C67.0059 94.7316 67.1109 94.5733 67.2683 94.5733H68.2131C68.4755 94.5733 68.6854 94.4149 68.7904 94.1511C68.8954 93.8344 68.8954 93.465 68.7904 93.0428L68.1606 90.7207C68.0556 90.2985 67.8457 89.929 67.5832 89.6124C67.3208 89.2957 67.0059 89.1374 66.7435 89.1374H65.7987C65.6937 89.1374 65.4313 88.9791 65.3788 88.768C65.3788 88.768 65.1689 88.3458 64.854 87.8708C64.5391 87.3958 64.2766 87.0264 64.2766 87.0264C64.1717 86.8681 64.0667 86.5514 64.0667 86.3931L64.1717 85.1265C64.2241 84.3876 63.8042 83.4377 63.2269 83.0155L61.5998 81.8016C61.0225 81.3794 60.4451 81.5905 60.3927 82.3294L60.2877 83.596C60.2877 83.7543 60.1302 83.9126 59.9728 83.8599C59.9728 83.8599 59.6579 83.8071 59.2905 83.7543C58.9231 83.7543 58.6606 83.8071 58.6606 83.8071C58.5557 83.8599 58.3457 83.7015 58.1883 83.5432L57.3485 82.2766C57.1385 81.9072 56.8236 81.6433 56.5612 81.5378C56.2463 81.4322 56.0363 81.485 55.8264 81.6961L54.8292 82.8571C54.6717 83.0682 54.5667 83.3849 54.6192 83.8071C54.6717 84.2293 54.8292 84.6515 55.0391 84.9682L55.8789 86.2348C55.9838 86.3931 56.0363 86.7097 56.0363 86.8681C56.0363 86.8681 55.9314 87.1847 55.8789 87.7125C55.8264 88.1874 55.8264 88.6096 55.8264 88.6096C55.8264 88.8207 55.7214 88.9791 55.564 88.9791H54.6192C54.3568 88.9791 54.1468 89.1374 54.0419 89.4013C53.9369 89.7179 53.9369 90.0874 54.0419 90.5096L54.6717 92.8317C54.8816 93.6761 55.564 94.4149 56.0888 94.4149H57.0336C57.1385 94.4149 57.401 94.5733 57.4534 94.7844C57.4534 94.7844 57.6634 95.2066 57.9783 95.6815C58.2932 96.1565 58.5557 96.5259 58.5557 96.5259C58.6606 96.6843 58.7656 97.0009 58.7656 97.1593L58.6606 98.4259C58.6081 99.1647 59.028 100.115 59.6054 100.537L61.2324 101.751C61.8098 102.173 62.3871 101.962 62.4396 101.223L62.5446 99.9563C62.5446 99.798 62.702 99.6397 62.8595 99.6925C62.8595 99.6925 63.1744 99.7452 63.5418 99.798C63.9092 99.798 64.1717 99.7452 64.1717 99.7452C64.2766 99.6925 64.4866 99.8508 64.644 100.009L65.4838 101.276C65.6937 101.645 66.0087 101.909 66.2711 102.015C66.586 102.12 66.7959 102.067 67.0059 101.856L68.0031 100.695C68.1606 100.484 68.2656 100.167 68.2131 99.7452C68.1606 99.323 68.0031 98.9008 67.7932 98.5842ZM61.075 94.7316C59.7628 93.7816 58.8181 91.6178 58.9755 89.9818C59.133 88.3458 60.3927 87.7652 61.7048 88.768C63.017 89.7179 63.9617 91.8817 63.8042 93.5178C63.6468 95.1538 62.3871 95.7343 61.075 94.7316Z" fill="url(#paint12_linear)"/>
<path d="M38.6633 31.5068C38.6633 34.4622 42.8099 39.1065 45.0144 40.3731C47.0089 41.5341 47.9537 40.3731 48.5835 41.798C48.8985 42.5368 48.9509 43.2229 48.9509 45.2284V55.6251L53.3599 61.4832C53.3599 61.4832 56.6667 59.9527 56.7716 59.7943C56.9291 59.3721 56.6142 58.3166 56.6142 56.4167C56.6142 52.353 59.8159 50.9281 62.6503 52.5641C65.4846 54.2002 68.6864 59.161 68.6864 63.3831C68.6864 65.3357 68.3715 65.969 68.5289 66.5496C68.6339 66.8662 68.7389 67.0773 69.7361 67.6051L73.0954 73.0409L76.3496 71.4577V39.212V34.8844L72.8854 32.879L48.9509 19.0519L45.4868 20.6351L48.9509 29.4486C48.9509 31.454 48.8985 32.0873 48.5835 32.4568C47.9537 33.1429 47.0089 30.8735 45.0144 29.7125C42.8099 28.4986 40.8678 29.9763 38.6633 31.5068Z" fill="url(#paint13_linear)"/>
<path d="M37.771 34.3567C37.771 37.3121 39.5556 40.6897 41.7076 41.9563C43.7021 43.1174 44.6469 41.9563 45.2767 43.3813C45.5917 44.1201 45.6441 44.8062 45.6441 46.8117V57.2084L52.2576 61.061C53.2024 61.6415 53.3598 61.5887 53.4648 61.3776C53.6223 60.9554 53.3074 59.8999 53.3074 58C53.3074 53.9363 56.5091 52.5114 59.3434 54.1474C62.1778 55.7835 65.3795 60.7443 65.3795 64.9663C65.3795 66.919 65.0646 67.5523 65.2221 68.1329C65.327 68.4495 65.432 68.6606 66.4293 69.1884L73.0427 73.041V40.7953V36.4677L69.5785 34.4623L45.6966 20.6351V31.0319C45.6966 33.0373 45.6442 33.6706 45.3292 34.04C44.6994 34.7261 43.7546 32.4568 41.7601 31.2957C39.5556 30.0819 37.771 31.4013 37.771 34.3567Z" fill="url(#paint14_linear)"/>
<path d="M64.5398 53.5669L61.2855 46.495C62.1778 45.7561 62.7027 44.384 62.7027 42.5368C62.7027 38.6843 60.3931 34.2511 57.5062 32.5623C54.6718 30.9263 52.3098 32.6679 52.3098 36.5205C52.3098 40.3731 54.6193 44.8062 57.5062 46.495C58.5035 47.0755 59.3959 47.2338 60.1832 47.0227L63.49 54.1474L64.5398 53.5669ZM53.832 37.4176C53.832 34.6733 55.5117 33.4067 57.5587 34.5678C59.6058 35.7288 61.2855 38.9481 61.2855 41.6924C61.2855 44.4368 59.6058 45.7034 57.5587 44.5423C55.5117 43.3813 53.832 40.162 53.832 37.4176Z" fill="#490038"/>
<defs>
<linearGradient id="paint0_linear" x1="21.4849" y1="55.3336" x2="102.098" y2="101.748" gradientUnits="userSpaceOnUse">
<stop stop-color="#88004F"/>
<stop offset="1" stop-color="#E30A3E"/>
</linearGradient>
<linearGradient id="paint1_linear" x1="15.6876" y1="72.2937" x2="53.478" y2="72.2937" gradientUnits="userSpaceOnUse">
<stop stop-color="#A45A8E"/>
<stop offset="1" stop-color="#842D89"/>
</linearGradient>
<linearGradient id="paint2_linear" x1="15.6763" y1="72.8148" x2="50.8999" y2="72.8148" gradientUnits="userSpaceOnUse">
<stop stop-color="#D25ABA"/>
<stop offset="1" stop-color="#A02DAC"/>
</linearGradient>
<linearGradient id="paint3_linear" x1="33.063" y1="78.5773" x2="32.9197" y2="92.9397" gradientUnits="userSpaceOnUse">
<stop stop-color="#88004F"/>
<stop offset="0.9927" stop-color="#490038"/>
</linearGradient>
<linearGradient id="paint4_linear" x1="22.3012" y1="72.3028" x2="22.1579" y2="86.6652" gradientUnits="userSpaceOnUse">
<stop stop-color="#88004F"/>
<stop offset="0.9927" stop-color="#490038"/>
</linearGradient>
<linearGradient id="paint5_linear" x1="29.532" y1="68.5773" x2="29.3093" y2="90.8953" gradientUnits="userSpaceOnUse">
<stop offset="1.94438e-07" stop-color="#FE5D7B"/>
<stop offset="0.5073" stop-color="#EB8273"/>
<stop offset="0.9968" stop-color="#FBEBB2"/>
</linearGradient>
<linearGradient id="paint6_linear" x1="25.9703" y1="68.8978" x2="25.7718" y2="88.7932" gradientUnits="userSpaceOnUse">
<stop stop-color="#FFD5D9"/>
<stop offset="1" stop-color="#FFBFF9"/>
</linearGradient>
<linearGradient id="paint7_linear" x1="-2.3575" y1="21.4807" x2="38.615" y2="29.0638" gradientUnits="userSpaceOnUse">
<stop stop-color="#D41131"/>
<stop offset="0.682" stop-color="#EB8273"/>
<stop offset="1" stop-color="#FFF9E3"/>
</linearGradient>
<linearGradient id="paint8_linear" x1="-2.49117" y1="22.2029" x2="36.4069" y2="29.4021" gradientUnits="userSpaceOnUse">
<stop offset="1.94438e-07" stop-color="#FE5D7B"/>
<stop offset="0.5073" stop-color="#EB8273"/>
<stop offset="0.9968" stop-color="#FBEBB2"/>
</linearGradient>
<linearGradient id="paint9_linear" x1="44.9028" y1="87.4863" x2="75.4748" y2="87.4863" gradientUnits="userSpaceOnUse">
<stop stop-color="#69004F"/>
<stop offset="0.9927" stop-color="#310038"/>
</linearGradient>
<linearGradient id="paint10_linear" x1="44.9017" y1="88.1877" x2="72.2017" y2="88.1877" gradientUnits="userSpaceOnUse">
<stop stop-color="#88004F"/>
<stop offset="0.9927" stop-color="#490038"/>
</linearGradient>
<linearGradient id="paint11_linear" x1="63.7975" y1="102.235" x2="62.2448" y2="80.4328" gradientUnits="userSpaceOnUse">
<stop offset="2.22215e-07" stop-color="#E3B0DE"/>
<stop offset="1" stop-color="#FFB3BE"/>
</linearGradient>
<linearGradient id="paint12_linear" x1="62.1306" y1="102.35" x2="60.6218" y2="81.1645" gradientUnits="userSpaceOnUse">
<stop stop-color="#FFD5D9"/>
<stop offset="1" stop-color="#FFBFF9"/>
</linearGradient>
<linearGradient id="paint13_linear" x1="38.6617" y1="46.0723" x2="76.2605" y2="46.0723" gradientUnits="userSpaceOnUse">
<stop stop-color="#FFB3BE"/>
<stop offset="0.9968" stop-color="#E3B0DE"/>
</linearGradient>
<linearGradient id="paint14_linear" x1="37.7653" y1="46.86" x2="72.9867" y2="46.86" gradientUnits="userSpaceOnUse">
<stop stop-color="#FFD5D9"/>
<stop offset="1" stop-color="#FFBFF9"/>
</linearGradient>
</defs>
</svg>
