<?xml version="1.0" encoding="utf-8"?>
<?xml-stylesheet type="text/css" href="../css/SVG.css" ?>
<!-- Generator: Adobe Illustrator 21.0.0, SVG Export Plug-In . SVG Version: 6.00 Build 0)  -->
<svg version="1.1" id="Subscription" xmlns="http://www.w3.org/2000/svg" xmlns:xlink="http://www.w3.org/1999/xlink" x="0px"
	 y="0px" viewBox="0 0 236 256" style="enable-background:new 0 0 236 256;" xml:space="preserve">
<style type="text/css">
                                    .strrkkx0 {
                                        fill: url(#Back_1_1_);
                                    }

                                    .strrkkx1 {
                                        fill: url(#frn3_1_);
                                    }

                                    .strrkkx2 {
                                        fill: url(#frn2_1_);
                                    }

                                    .strrkkx3 {
                                        fill: url(#frn1_1_);
                                    }

                                    .strrkkx4 {
                                        fill: url(#Back_2_1_);
                                    }

                                    .strrkkx5 {
                                        fill: url(#fr25_1_);
                                    }

                                    .strrkkx6 {
                                        fill: url(#fr24_1_);
                                    }

                                    .strrkkx7 {
                                        fill: url(#fr23_1_);
                                    }

                                    .strrkkx8 {
                                        fill: url(#fr22_1_);
                                    }

                                    .strrkkx9 {
                                        fill: url(#fr21_1_);
                                    }

                                    .strrkkx10 {
                                        fill: url(#Back_4_1_);
                                    }

                                    .strrkkx11 {
                                        fill: url(#cmp2_1_);
                                    }

                                    .strrkkx12 {
                                        fill: #490038;
                                    }

                                    .strrkkx13 {
                                        fill: url(#Back_3_1_);
                                    }

                                    .strrkkx14 {
                                        fill: url(#Front_3_1_);
                                    }
</style>
                                <g id="pzl4">
                                    <linearGradient id="Back_1_1_" gradientUnits="userSpaceOnUse" x1="148.0533"
                                        y1="171.2627" x2="201.5" y2="171.2627">
                                        <stop offset="0" style="stop-color:#69004F" />
                                        <stop offset="0.9927" style="stop-color:#310038" />
                                    </linearGradient>
                                    <path id="Back_1" class="strrkkx0" d="M201.5,210.1V155l-13.6-7.8c-2.6-1.5-3.5-2.1-4.2-3.3c-1.4-2.3,0.8-3.2,0.8-7.9
                                    c0-5.1-3.1-11-6.9-13.2c-3.8-2.2-5.8-0.6-10.5,2c0,4.6,5.8,11.3,4.4,12c-0.7,0.4-1.6,0-4.2-1.5l-13.6-7.8l-5.7,2.2l5.7,13.2
                                    c0,2.3,0.2,2.7,0.5,3.1c0.7,0.8,1.8,0.6,4.3,2.1c5.3,3.1,9.6,13,9.6,19.6c0,6.6-4,11.7-9.6,8.5c-2.5-1.5-3.6-2.9-4.3-2.9
                                    c-0.3,0-3.7,1.3-6,2.5l5.6,15.4l42,29.8l5.7-2.2L201.5,210.1z" />
                                    <linearGradient id="frn3_1_" gradientUnits="userSpaceOnUse" x1="148.0513"
                                        y1="172.4821" x2="195.7769" y2="172.4821">
                                        <stop offset="0" style="stop-color:#88004F" />
                                        <stop offset="0.9927" style="stop-color:#490038" />
                                    </linearGradient>
                                    <path id="frn3" class="strrkkx1" d="M195.8,212.3v-55.1l-13.6-7.8c-2.6-1.5-3.5-2.1-4.2-3.3c-1.4-2.3,0.8-3.2,0.8-7.9
                                    c0-5.1-3.1-11-6.9-13.2c-3.8-2.2-6.9,0.1-6.9,5.2c0,4.6,2.2,8.1,0.8,8.8c-0.7,0.4-1.6,0-4.2-1.5l-13.6-7.8l0,15.4
                                    c0,2.3,0.2,2.7,0.5,3.1c0.7,0.8,1.8,0.6,4.3,2.1c5.3,3.1,9.6,13,9.6,19.6c0,6.6-4,11.7-9.6,8.5c-2.5-1.5-3.6-2.9-4.3-2.9
                                    c-0.3,0-0.5,0.2-0.5,2.5v15.4l41.5,23.9l6.2,3.6L195.8,212.3z" />

                                    <linearGradient id="frn2_1_" gradientUnits="userSpaceOnUse" x1="81.4567"
                                        y1="203.9507" x2="119.4618" y2="203.9507"
                                        gradientTransform="matrix(-7.065506e-02 -0.9975 0.9975 -7.065506e-02 -16.6004 292.5701)">
                                        <stop offset="2.222154e-07" style="stop-color:#E3B0DE" />
                                        <stop offset="1" style="stop-color:#FFB3BE" />
                                    </linearGradient>
                                    <path id="frn2" class="strrkkx2"
                                        d="M190.9,189.2l-1.4-2.2c-0.2-0.3-0.3-0.8-0.2-1.1c0,0,0.2-0.6,0.2-1.4c0.1-0.9,0.1-1.5,0.1-1.6
                                    c0-0.3-0.6,0.6-0.3,0.6l2.5-1.2c0.5-0.2,0.8-0.3,1-0.8c0.2-0.5,0.2-1.2,0-1.9l-1.1-4.1c-0.2-0.7-0.6-1.4-1-1.9
                                    c-0.5-0.5-1-0.8-1.5-0.8l-1.7,0c-0.2,0-0.6-0.3-0.8-0.6c0,0-0.4-0.7-0.9-1.6c-0.5-0.8-1-1.4-1-1.5c-0.2-0.3-0.4-0.8-0.4-1.1
                                    l0.2-2.2c0.1-1.3-0.6-2.9-1.7-3.7L180,160c-1-0.8-3.6,0.4-4.5,1.2l2.2,2c0,0.3-0.3,0.5-0.5,0.5c0,0-0.5-0.1-1.2-0.1
                                    c-0.6,0-1.1,0.1-1.1,0.1c-0.2,0.1-0.6-0.2-0.8-0.5l-1.4-2.2c-0.4-0.6-0.9-1.1-1.4-1.3c-0.5-0.2-0.9,0-1.3,0.2l-2.7,1.2
                                    c-0.3,0.4,0.5,1.8,0.6,2.5c0.1,0.7,0.3,1.4,0.7,2.1l1.4,2.2c0.2,0.3,0.3,0.8,0.2,1.1c0,0-0.2,0.6-0.2,1.4c-0.1,0.9-0.1,1.5-0.1,1.6
                                    c0,0.3-0.2,0.6-0.4,0.6l-1.7,0c-0.5,0-0.8,0.3-1,0.8c-0.2,0.5-0.2,1.2,0,1.9l1.1,4.1c0.4,1.5,1.5,2.7,2.5,2.7l1.7,0
                                    c0.2,0,0.6,0.3,0.8,0.6c0,0,0.4,0.7,0.9,1.6c0.5,0.8,1,1.4,1,1.5c0.2,0.3,0.4,0.8,0.4,1.1l-0.2,2.2c-0.1,1.3,0.6,2.9,1.7,3.7
                                    l0.3,3.5c1,0.8,4.6-1.1,4.7-2.4l0.2-2.2c0-0.3,0.3-0.5,0.5-0.5c0,0,0.5,0.1,1.2,0.1c0.6,0,1.1-0.1,1.1-0.1c0.2-0.1,0.6,0.2,0.8,0.5
                                    l1.4,2.2c0.4,0.6-1.6,2.5-1.1,2.7c0.5,0.2,3.4-1.3,3.7-1.6l1.7-2c0.3-0.4,0.4-0.9,0.4-1.6C191.5,190.6,191.3,189.9,190.9,189.2z
                                     M179.2,182.6c-2.3-1.7-4-5.4-3.7-8.3c0.3-2.9,2.4-3.8,4.8-2.1s4,5.4,3.7,8.3S181.5,184.3,179.2,182.6z" />

                                    <linearGradient id="frn1_1_" gradientUnits="userSpaceOnUse" x1="81.4643"
                                        y1="201.0304" x2="118.3932" y2="201.0304"
                                        gradientTransform="matrix(-7.065506e-02 -0.9975 0.9975 -7.065506e-02 -16.6004 292.5701)">
                                        <stop offset="0" style="stop-color:#FFD5D9" />
                                        <stop offset="1" style="stop-color:#FFBFF9" />
                                    </linearGradient>
                                    <path id="frn1" class="strrkkx3"
                                        d="M188,190.5l-1.4-2.2c-0.2-0.3-0.3-0.8-0.2-1.1c0,0,0.2-0.6,0.2-1.4c0.1-0.9,0.1-1.5,0.1-1.6
                                    c0-0.3,0.2-0.6,0.4-0.6l1.7,0c0.5,0,0.8-0.3,1-0.8c0.2-0.5,0.2-1.2,0-1.9l-1.1-4.1c-0.2-0.7-0.6-1.4-1-1.9c-0.5-0.5-1-0.8-1.5-0.8
                                    l-1.7,0c-0.2,0-0.6-0.3-0.8-0.6c0,0-0.4-0.7-0.9-1.6c-0.5-0.8-1-1.4-1-1.5c-0.2-0.3-0.4-0.8-0.4-1.1l0.2-2.2
                                    c0.1-1.3-0.6-2.9-1.7-3.7l-2.8-2.1c-1-0.8-2-0.3-2.1,1l-0.2,2.2c0,0.3-0.3,0.5-0.5,0.5c0,0-0.5-0.1-1.2-0.1c-0.6,0-1.1,0.1-1.1,0.1
                                    c-0.2,0.1-0.6-0.2-0.8-0.5l-1.4-2.2c-0.4-0.6-0.9-1.1-1.4-1.3c-0.5-0.2-1-0.1-1.3,0.2l-1.7,2c-0.3,0.4-0.4,0.9-0.4,1.6
                                    c0.1,0.7,0.3,1.4,0.7,2.1l1.4,2.2c0.2,0.3,0.3,0.8,0.2,1.1c0,0-0.2,0.6-0.2,1.4c-0.1,0.9-0.1,1.5-0.1,1.6c0,0.3-0.2,0.6-0.4,0.6
                                    l-1.7,0c-0.5,0-0.8,0.3-1,0.8c-0.2,0.5-0.2,1.2,0,1.9l1.1,4.1c0.4,1.5,1.5,2.7,2.5,2.7l1.7,0c0.2,0,0.6,0.3,0.8,0.6
                                    c0,0,0.4,0.7,0.9,1.6c0.5,0.8,1,1.4,1,1.5c0.2,0.3,0.4,0.8,0.4,1.1l-0.2,2.2c-0.1,1.3,0.6,2.9,1.7,3.7l2.8,2.1c1,0.8,2,0.3,2.1-1
                                    l0.2-2.2c0-0.3,0.3-0.5,0.5-0.5c0,0,0.5,0.1,1.2,0.1c0.6,0,1.1-0.1,1.1-0.1c0.2-0.1,0.6,0.2,0.8,0.5l1.4,2.2
                                    c0.4,0.6,0.9,1.1,1.4,1.3c0.5,0.2,1,0.1,1.3-0.2l1.7-2c0.3-0.4,0.4-0.9,0.4-1.6C188.7,191.9,188.4,191.1,188,190.5z M176.3,183.9
                                    c-2.3-1.7-4-5.4-3.7-8.3c0.3-2.9,2.4-3.8,4.8-2.1s4,5.4,3.7,8.3C180.8,184.6,178.7,185.6,176.3,183.9z" />
                                </g>
                                <g id="pzl3">
                                    <linearGradient id="Back_2_1_" gradientUnits="userSpaceOnUse" x1="96.9783"
                                        y1="144.8474" x2="163.0442" y2="144.8474">
                                        <stop offset="0" style="stop-color:#A45A8E" />
                                        <stop offset="1" style="stop-color:#842D89" />
                                    </linearGradient>
                                    <path id="Back_2" class="strrkkx4" d="M163,165.7c0-5.1-3.1-11-6.9-13.2c-3.5-2-5.1,0-6.3-2.5c-0.6-1.3-0.7-2.5-0.7-6v-18.1l-11.6-6.7
                                    c-1.7-1-1.9-0.7-2.1-0.7c-0.3,0.2-2.6,1.1-4.4,1.8c0.1,1,4.7,2.2,4.7,4.3c0,7.1-5.6,9.5-10.5,6.7c-4.9-2.8-10.5-11.4-10.5-18.8
                                    c0-3.4,0.6-4.5,0.3-5.5c-0.1-0.5-0.4-0.9-2.1-1.9l-11.6-6.7l-4.5,1.8l4.5,53l0,8.7l6.4,3.7l36.9,25.7l4.5-1.8v-18.1
                                    c0-3.5,0.1-4.6,0.7-5.2c1.1-1.1,2.3,5.2,5.7,7.2C160.2,171.6,163,170.8,163,165.7z" />
                                    <linearGradient id="fr25_1_" gradientUnits="userSpaceOnUse" x1="96.9585"
                                        y1="145.7535" x2="158.537" y2="145.7535">
                                        <stop offset="0" style="stop-color:#D25ABA" />
                                        <stop offset="1" style="stop-color:#A02DAC" />
                                    </linearGradient>
                                    <path id="fr25" class="strrkkx5" d="M158.5,167.5c0-5.1-3.1-11-6.9-13.2c-3.5-2-5.1,0-6.3-2.5c-0.6-1.3-0.7-2.5-0.7-6v-18.1l-11.6-6.7
                                    c-1.7-1-1.9-0.9-2.1-0.5c-0.3,0.7,0.3,2.5,0.3,5.9c0,7.1-5.6,9.5-10.5,6.7c-4.9-2.8-10.5-11.4-10.5-18.8c0-3.4,0.6-4.5,0.3-5.5
                                    c-0.1-0.5-0.4-0.9-2.1-1.9L97,100.2V155l0,8.7l6.4,3.7l41.4,23.9v-18.1c0-3.5,0.1-4.6,0.7-5.2c1.1-1.1,2.8,2.7,6.3,4.7
                                    C155.4,175,158.5,172.6,158.5,167.5z" />

                                    <linearGradient id="fr24_1_" gradientUnits="userSpaceOnUse" x1="149.6837"
                                        y1="202.3188" x2="127.9433" y2="214.607"
                                        gradientTransform="matrix(-0.4834 -0.8754 -0.8754 0.4834 376.8221 189.0042)">
                                        <stop offset="0" style="stop-color:#88004F" />
                                        <stop offset="0.9927" style="stop-color:#490038" />
                                    </linearGradient>
                                    <polygon id="fr24" class="strrkkx6"
                                        points="129,180.8 129.4,158.1 125.5,155.8 125.1,178.4 	" />

                                    <linearGradient id="fr23_1_" gradientUnits="userSpaceOnUse" x1="168.3287"
                                        y1="213.5155" x2="146.5883" y2="225.8037"
                                        gradientTransform="matrix(-0.4834 -0.8754 -0.8754 0.4834 376.8221 189.0042)">
                                        <stop offset="0" style="stop-color:#88004F" />
                                        <stop offset="0.9927" style="stop-color:#490038" />
                                    </linearGradient>
                                    <polygon id="fr23" class="strrkkx7"
                                        points="110.1,169.9 110.6,147.2 106.7,144.8 106.3,167.5 	" />

                                    <linearGradient id="fr22_1_" gradientUnits="userSpaceOnUse" x1="167.8883"
                                        y1="199.318" x2="134.1054" y2="218.4129"
                                        gradientTransform="matrix(-0.4834 -0.8754 -0.8754 0.4834 376.8221 189.0042)">
                                        <stop offset="1.944385e-07" style="stop-color:#FE5D7B" />
                                        <stop offset="0.5073" style="stop-color:#EB8273" />
                                        <stop offset="0.9968" style="stop-color:#FBEBB2" />
                                    </linearGradient>
                                    <polygon id="fr22" class="strrkkx8"
                                        points="122.6,177.2 123.3,140.7 119.4,138.4 118.7,174.9 	" />

                                    <linearGradient id="fr21_1_" gradientUnits="userSpaceOnUse" x1="170.4106"
                                        y1="205.0382" x2="140.2945" y2="222.0605"
                                        gradientTransform="matrix(-0.4834 -0.8754 -0.8754 0.4834 376.8221 189.0042)">
                                        <stop offset="0" style="stop-color:#FFD5D9" />
                                        <stop offset="1" style="stop-color:#FFBFF9" />
                                    </linearGradient>
                                    <polygon id="fr21" class="strrkkx9"
                                        points="116.4,173.6 117,141.3 113.1,138.9 112.6,171.2 	" />
                                </g>
                                <g id="pzl2">
                                    <linearGradient id="Back_4_1_" gradientUnits="userSpaceOnUse" x1="135.7695"
                                        y1="103.9033" x2="201.5" y2="103.9033">
                                        <stop offset="0" style="stop-color:#FFB3BE" />
                                        <stop offset="0.9968" style="stop-color:#E3B0DE" />
                                    </linearGradient>
                                    <path id="Back_4" class="strrkkx10" d="M135.8,78.6c0,5.1,7.3,13.2,11.1,15.4c3.5,2,5.1,0,6.3,2.5c0.6,1.3,0.7,2.5,0.7,6v18.1l7.7,10.2
                                    c0,0,5.8-2.6,5.9-3c0.3-0.7-0.3-2.5-0.3-5.9c0-7.1,5.6-9.5,10.5-6.7c4.9,2.8,10.5,11.4,10.5,18.8c0,3.4-0.6,4.5-0.3,5.5
                                    c0.1,0.5,0.4,0.9,2.1,1.9l5.8,9.4l5.7-2.7V92l0-7.5l-6-3.5L153.8,57l-6.1,2.7l6.1,15.4c0,3.5-0.1,4.6-0.7,5.2
                                    c-1.1,1.1-2.8-2.7-6.3-4.7C143,73.3,139.6,75.9,135.8,78.6z" />
                                    <linearGradient id="cmp2_1_" gradientUnits="userSpaceOnUse" x1="134.2024"
                                        y1="105.2727" x2="195.7769" y2="105.2727">
                                        <stop offset="0" style="stop-color:#FFD5D9" />
                                        <stop offset="1" style="stop-color:#FFBFF9" />
                                    </linearGradient>
                                    <path id="cmp2" class="strrkkx11" d="M134.2,83.5c0,5.1,3.1,11,6.9,13.2c3.5,2,5.1,0,6.3,2.5c0.6,1.3,0.7,2.5,0.7,6v18.1l11.6,6.7
                                    c1.7,1,1.9,0.9,2.1,0.5c0.3-0.7-0.3-2.5-0.3-5.9c0-7.1,5.6-9.5,10.5-6.7c4.9,2.8,10.5,11.4,10.5,18.8c0,3.4-0.6,4.5-0.3,5.5
                                    c0.1,0.5,0.4,0.9,2.1,1.9l11.6,6.7V94.8l0-7.5l-6-3.5L148,59.7v18.1c0,3.5-0.1,4.6-0.7,5.2c-1.1,1.1-2.8-2.7-6.3-4.7
                                    C137.3,76.1,134.2,78.4,134.2,83.5z" />
                                    <path id="cmp1" class="strrkkx12" d="M181,117l-5.7-12.3c1.6-1.3,2.5-3.6,2.5-6.9c0-6.7-4.1-14.4-9.1-17.3c-5-2.9-9.1,0.2-9.1,6.9
                                    c0,6.7,4.1,14.4,9.1,17.3c1.7,1,3.3,1.3,4.7,1l5.7,12.3L181,117z M162.3,88.9c0-4.8,2.9-7,6.5-4.9s6.5,7.6,6.5,12.4
                                    c0,4.8-2.9,7-6.5,4.9S162.3,93.6,162.3,88.9z" />
                                </g>
                                <g id="pzl1">

                                    <linearGradient id="Back_3_1_" gradientUnits="userSpaceOnUse" x1="74.691"
                                        y1="74.3375" x2="144.6036" y2="74.3375"
                                        gradientTransform="matrix(1.0244 0.1894 -0.19 1.021 5.1996 -35.3377)">
                                        <stop offset="0" style="stop-color:#D41131" />
                                        <stop offset="0.682" style="stop-color:#EB8273" />
                                        <stop offset="1" style="stop-color:#FFF9E3" />
                                    </linearGradient>
                                    <path id="Back_3" class="strrkkx13"
                                        d="M97.3,93.5l11.1-2.6c2.1-0.5,2.9-0.5,3.7,0.1c1.6,1.3,0.5,4.1,2,8.9c1.1,3.4,1.6,8.9,3.7,10.3
                                    c2.7-0.7,3.8-1.1,5-1.5c3-1.1,4.2-6,2.6-11.4c-1.5-4.9-4-6.8-3.4-8.6c0.3-0.9,1-1.2,3.1-1.7l7-0.8l4.1-1.8l-5-16.2
                                    c-0.7-2.4-1-2.7-1.3-2.8c-0.7-0.3-1.3,0.8-3.4,1.3c-4.3,1-10.2-6-12.4-12.9c-2.1-6.9-1.3-15.5,3.2-16.6c0.2,0-0.7-0.4-1,0
                                    c-0.3,0.4,0.1,1.6,0.3,1.6c2-1,4-1.5,4.4-2c0.2-0.3,0.2-0.6-0.5-3l-5-16.2l-33.4,7.9l-5.5,1.3l-4.1,1.8l6.8,6.9L97.3,93.5z" />

                                    <linearGradient id="Front_3_1_" gradientUnits="userSpaceOnUse" x1="74.691"
                                        y1="75.5673" x2="141.0639" y2="75.5673"
                                        gradientTransform="matrix(1.0244 0.1894 -0.19 1.021 5.1996 -35.3377)">
                                        <stop offset="1.944385e-07" style="stop-color:#FE5D7B" />
                                        <stop offset="0.5073" style="stop-color:#EB8273" />
                                        <stop offset="0.9968" style="stop-color:#FBEBB2" />
                                    </linearGradient>
                                    <path id="Front_3" class="strrkkx14" d="M93.2,95.3l11.1-2.6c2.1-0.5,2.9-0.5,3.7,0.1c1.6,1.3,0.5,4.1,2,8.9c1.7,5.4,5.5,9.1,8.6,8.4
                                    s4.3-5.7,2.6-11c-1.5-4.9-4-6.8-3.4-8.6c0.3-0.9,1-1.2,3.1-1.7l11.1-2.6l-5-16.2c-0.7-2.4-1-2.7-1.3-2.8c-0.7-0.3-1.3,0.8-3.4,1.3
                                    c-4.3,1-10.2-6-12.4-12.9c-2.1-6.9-1.3-15.5,3.2-16.6c2.1-0.5,3.2,0.1,3.6-0.4c0.2-0.3,0.2-0.6-0.5-3l-5-16.2L78,27l-5.5,1.3
                                    l2.7,8.7L93.2,95.3z" />
                                </g>
</svg>
